{
    "new_entries": {
        "has_next": false,
        "page": 1,
        "results": [
            {
                "entry": 6461546,
                "entry_name": "Flykidsp",
                "joined_time": "2022-03-08T10:57:26.298757Z",
                "player_first_name": "Jago",
                "player_last_name": "Junior"
            },
            {
                "entry": 233521,
                "entry_name": "Supa Strikas",
                "joined_time": "2022-03-08T10:05:49.891820Z",
                "player_first_name": "Chika",
                "player_last_name": "Ike"
            },
            {
                "entry": 9034500,
                "entry_name": "Big H",
                "joined_time": "2022-03-07T13:53:01.369706Z",
                "player_first_name": "Hussain",
                "player_last_name": "Adel"
            }
        ]
    },
    "last_updated_data": "2022-03-07T23:42:08Z",
    "league": {
        "id": 12188,
        "name": "Always Cheating Super League",
        "created": "2021-06-22T12:22:28.898072Z",
        "closed": false,
        "max_entries": null,
        "league_type": "x",
        "scoring": "c",
        "admin_entry": 33725,
        "start_event": 1,
        "code_privacy": "p",
        "has_cup": false,
        "cup_league": null,
        "rank": null,
        "lgCount": 24800
    },
    "standings": {
        "has_next": true,
        "page": 1,
        "results": [
            {
                "id": 58129379,
                "event_total": 83,
                "player_name": "Hendrik Mattsson",
                "rank": 1,
                "last_rank": 2,
                "rank_sort": 1,
                "total": 2015,
                "entry": 877419,
                "entry_name": "Lanista Primus"
            },
            {
                "id": 501201,
                "event_total": 88,
                "player_name": "Sam McHaffie",
                "rank": 2,
                "last_rank": 8,
                "rank_sort": 2,
                "total": 1996,
                "entry": 96354,
                "entry_name": "Samtiago Mu\u00f1ez"
            },
            {
                "id": 63942788,
                "event_total": 110,
                "player_name": "Filemon Dettori",
                "rank": 3,
                "last_rank": 17,
                "rank_sort": 3,
                "total": 1992,
                "entry": 4077661,
                "entry_name": "de Bruyne suiker"
            },
            {
                "id": 45787402,
                "event_total": 105,
                "player_name": "Juan Rodriguez",
                "rank": 4,
                "last_rank": 12,
                "rank_sort": 4,
                "total": 1991,
                "entry": 912104,
                "entry_name": "Cata\u00f1uela"
            },
            {
                "id": 33683756,
                "event_total": 48,
                "player_name": "Daniel Masson-Abraham",
                "rank": 5,
                "last_rank": 1,
                "rank_sort": 5,
                "total": 1989,
                "entry": 2335,
                "entry_name": "Gangster's Allardyce"
            },
            {
                "id": 316591,
                "event_total": 85,
                "player_name": "Finn Sollie",
                "rank": 6,
                "last_rank": 10,
                "rank_sort": 6,
                "total": 1988,
                "entry": 27842,
                "entry_name": "Finncastle"
            },
            {
                "id": 62051728,
                "event_total": 101,
                "player_name": "Mike Lihou",
                "rank": 7,
                "last_rank": 13,
                "rank_sort": 7,
                "total": 1983,
                "entry": 3027096,
                "entry_name": "Toneys & I @FPLihou"
            },
            {
                "id": 63419600,
                "event_total": 68,
                "player_name": "Reuben Jeeva",
                "rank": 8,
                "last_rank": 4,
                "rank_sort": 8,
                "total": 1981,
                "entry": 7254,
                "entry_name": "Reuben Kazan FC"
            },
            {
                "id": 63399441,
                "event_total": 69,
                "player_name": "Chris Turner",
                "rank": 9,
                "last_rank": 6,
                "rank_sort": 9,
                "total": 1980,
                "entry": 113314,
                "entry_name": "The Brothers Grimsby"
            },
            {
                "id": 326630,
                "event_total": 70,
                "player_name": "Tor Even Pettersen",
                "rank": 10,
                "last_rank": 7,
                "rank_sort": 10,
                "total": 1980,
                "entry": 258,
                "entry_name": "Money Mase"
            },
            {
                "id": 4704052,
                "event_total": 73,
                "player_name": "Kevin walshe",
                "rank": 11,
                "last_rank": 9,
                "rank_sort": 11,
                "total": 1979,
                "entry": 164129,
                "entry_name": "Dirtbirddub"
            },
            {
                "id": 62674639,
                "event_total": 68,
                "player_name": "Ben Fowler",
                "rank": 12,
                "last_rank": 5,
                "rank_sort": 12,
                "total": 1979,
                "entry": 591098,
                "entry_name": "Zinchenko SZN"
            },
            {
                "id": 7033702,
                "event_total": 59,
                "player_name": "Caleb St.Ather",
                "rank": 13,
                "last_rank": 3,
                "rank_sort": 13,
                "total": 1977,
                "entry": 56849,
                "entry_name": "Credit to the boys"
            },
            {
                "id": 63394593,
                "event_total": 91,
                "player_name": "Kishendre Varma",
                "rank": 14,
                "last_rank": 22,
                "rank_sort": 14,
                "total": 1972,
                "entry": 125969,
                "entry_name": "Game of Stones"
            },
            {
                "id": 63393782,
                "event_total": 87,
                "player_name": "Pat Reilly",
                "rank": 15,
                "last_rank": 20,
                "rank_sort": 15,
                "total": 1970,
                "entry": 1066508,
                "entry_name": "FC Stankonia"
            },
            {
                "id": 331774,
                "event_total": 100,
                "player_name": "Tom Robinson",
                "rank": 16,
                "last_rank": 25,
                "rank_sort": 16,
                "total": 1969,
                "entry": 8541,
                "entry_name": "Tierney's Tesco Bag"
            },
            {
                "id": 21633463,
                "event_total": 89,
                "player_name": "Tien Ngo",
                "rank": 17,
                "last_rank": 14,
                "rank_sort": 17,
                "total": 1968,
                "entry": 320266,
                "entry_name": "TheCong-FPL Planner"
            },
            {
                "id": 38561400,
                "event_total": 88,
                "player_name": "Mudit Malik",
                "rank": 18,
                "last_rank": 19,
                "rank_sort": 18,
                "total": 1967,
                "entry": 2930,
                "entry_name": "Entourage"
            },
            {
                "id": 62128797,
                "event_total": 88,
                "player_name": "Milan Singh",
                "rank": 19,
                "last_rank": 33,
                "rank_sort": 19,
                "total": 1960,
                "entry": 13253,
                "entry_name": "The Saffron Sword"
            },
            {
                "id": 1406509,
                "event_total": 101,
                "player_name": "Kim-Tonny Henriksen",
                "rank": 20,
                "last_rank": 69,
                "rank_sort": 20,
                "total": 1959,
                "entry": 265853,
                "entry_name": "Tonny's Toney Tunes"
            },
            {
                "id": 32164037,
                "event_total": 90,
                "player_name": "Alexander Hellgren",
                "rank": 21,
                "last_rank": 41,
                "rank_sort": 21,
                "total": 1958,
                "entry": 1001992,
                "entry_name": "Los Helles Hermanos"
            },
            {
                "id": 4665926,
                "event_total": 98,
                "player_name": "Abdoulie Cham",
                "rank": 22,
                "last_rank": 64,
                "rank_sort": 22,
                "total": 1957,
                "entry": 7363,
                "entry_name": "@KotuClassic(Chama)"
            },
            {
                "id": 316127,
                "event_total": 63,
                "player_name": "James Queralt",
                "rank": 23,
                "last_rank": 11,
                "rank_sort": 23,
                "total": 1956,
                "entry": 2423,
                "entry_name": "Losing My Reguilon"
            },
            {
                "id": 12702564,
                "event_total": 92,
                "player_name": "Edvard Jensen",
                "rank": 24,
                "last_rank": 50,
                "rank_sort": 24,
                "total": 1955,
                "entry": 2229592,
                "entry_name": "Bacardi&Vann Albions"
            },
            {
                "id": 326744,
                "event_total": 78,
                "player_name": "Oisin Kirwan",
                "rank": 25,
                "last_rank": 24,
                "rank_sort": 25,
                "total": 1952,
                "entry": 524,
                "entry_name": "The Special Juan"
            },
            {
                "id": 62660890,
                "event_total": 87,
                "player_name": "Steve Jones",
                "rank": 26,
                "last_rank": 47,
                "rank_sort": 26,
                "total": 1951,
                "entry": 530770,
                "entry_name": "Is What it is"
            },
            {
                "id": 7909376,
                "event_total": 64,
                "player_name": "Sean Flanagan",
                "rank": 27,
                "last_rank": 15,
                "rank_sort": 27,
                "total": 1951,
                "entry": 1445267,
                "entry_name": "Fabian Sch\u00e4rted"
            },
            {
                "id": 43814763,
                "event_total": 89,
                "player_name": "Max Bentley",
                "rank": 28,
                "last_rank": 56,
                "rank_sort": 28,
                "total": 1950,
                "entry": 43128,
                "entry_name": "Bentley Continentals"
            },
            {
                "id": 1645162,
                "event_total": 89,
                "player_name": "Ivan Donchev",
                "rank": 29,
                "last_rank": 60,
                "rank_sort": 29,
                "total": 1949,
                "entry": 310659,
                "entry_name": "Oowee"
            },
            {
                "id": 3378210,
                "event_total": 94,
                "player_name": "Jaren Ong",
                "rank": 30,
                "last_rank": 79,
                "rank_sort": 30,
                "total": 1949,
                "entry": 638409,
                "entry_name": "Little Dancer"
            },
            {
                "id": 33081207,
                "event_total": 60,
                "player_name": "Damien Ruigrok",
                "rank": 31,
                "last_rank": 16,
                "rank_sort": 31,
                "total": 1946,
                "entry": 60997,
                "entry_name": "Dteam"
            },
            {
                "id": 7748438,
                "event_total": 89,
                "player_name": "tony lee",
                "rank": 32,
                "last_rank": 75,
                "rank_sort": 32,
                "total": 1945,
                "entry": 1417919,
                "entry_name": "dilly gents"
            },
            {
                "id": 9753326,
                "event_total": 105,
                "player_name": "Sam Herring",
                "rank": 32,
                "last_rank": 136,
                "rank_sort": 33,
                "total": 1945,
                "entry": 5879,
                "entry_name": "Slumdog Mignolet"
            },
            {
                "id": 34463262,
                "event_total": 94,
                "player_name": "Jonas Lindstr\u00f6m",
                "rank": 34,
                "last_rank": 76,
                "rank_sort": 34,
                "total": 1945,
                "entry": 5050876,
                "entry_name": "Jonas Brothers"
            },
            {
                "id": 63515795,
                "event_total": 73,
                "player_name": "Sondre Haug",
                "rank": 35,
                "last_rank": 32,
                "rank_sort": 35,
                "total": 1945,
                "entry": 28944,
                "entry_name": "Soldiers of Sondre"
            },
            {
                "id": 46642124,
                "event_total": 78,
                "player_name": "Adnan Gangerdiwala",
                "rank": 36,
                "last_rank": 43,
                "rank_sort": 36,
                "total": 1944,
                "entry": 486655,
                "entry_name": "adsg710"
            },
            {
                "id": 321838,
                "event_total": 104,
                "player_name": "B\u00f8rge Johnsen",
                "rank": 37,
                "last_rank": 134,
                "rank_sort": 37,
                "total": 1944,
                "entry": 10966,
                "entry_name": "Patrik B\u00f8rger FC"
            },
            {
                "id": 6716909,
                "event_total": 88,
                "player_name": "Brian Cahill",
                "rank": 38,
                "last_rank": 48,
                "rank_sort": 38,
                "total": 1944,
                "entry": 2583,
                "entry_name": "Ya ya sure sure"
            },
            {
                "id": 9405432,
                "event_total": 56,
                "player_name": "Suvansh Singh",
                "rank": 39,
                "last_rank": 18,
                "rank_sort": 39,
                "total": 1941,
                "entry": 2547,
                "entry_name": "Concrete Boys"
            },
            {
                "id": 63549802,
                "event_total": 89,
                "player_name": "Aeywikan Buakong",
                "rank": 40,
                "last_rank": 87,
                "rank_sort": 40,
                "total": 1941,
                "entry": 6046392,
                "entry_name": "NoBenchIamReal"
            },
            {
                "id": 320432,
                "event_total": 78,
                "player_name": "Deniss Maksimovs",
                "rank": 41,
                "last_rank": 63,
                "rank_sort": 41,
                "total": 1937,
                "entry": 4732,
                "entry_name": "Master Den"
            },
            {
                "id": 49351654,
                "event_total": 70,
                "player_name": "Torje Hegna",
                "rank": 42,
                "last_rank": 38,
                "rank_sort": 42,
                "total": 1936,
                "entry": 182130,
                "entry_name": "Taiga"
            },
            {
                "id": 25325152,
                "event_total": 92,
                "player_name": "Marcus Aarseth",
                "rank": 43,
                "last_rank": 117,
                "rank_sort": 43,
                "total": 1936,
                "entry": 1337003,
                "entry_name": "\ufffdMXAA\ufffd"
            },
            {
                "id": 516606,
                "event_total": 93,
                "player_name": "Panajot Gjiknuri",
                "rank": 44,
                "last_rank": 124,
                "rank_sort": 44,
                "total": 1935,
                "entry": 99269,
                "entry_name": "next20"
            },
            {
                "id": 446422,
                "event_total": 90,
                "player_name": "Rasmus Christensen",
                "rank": 45,
                "last_rank": 100,
                "rank_sort": 45,
                "total": 1934,
                "entry": 85799,
                "entry_name": "Ji-sung Park the Bus"
            },
            {
                "id": 7889478,
                "event_total": 73,
                "player_name": "Ashley Hayden",
                "rank": 46,
                "last_rank": 56,
                "rank_sort": 46,
                "total": 1934,
                "entry": 1441928,
                "entry_name": "Bruce Benitez"
            },
            {
                "id": 4611946,
                "event_total": 68,
                "player_name": "Rob Glasser",
                "rank": 46,
                "last_rank": 39,
                "rank_sort": 47,
                "total": 1934,
                "entry": 5980,
                "entry_name": "You don\u2019t Luke Shaw"
            },
            {
                "id": 325905,
                "event_total": 73,
                "player_name": "Johan L\u00f8ken",
                "rank": 48,
                "last_rank": 58,
                "rank_sort": 48,
                "total": 1934,
                "entry": 9000,
                "entry_name": "Rimelig tvil"
            },
            {
                "id": 320023,
                "event_total": 65,
                "player_name": "Marcin Mastalerczyk",
                "rank": 49,
                "last_rank": 31,
                "rank_sort": 49,
                "total": 1933,
                "entry": 18326,
                "entry_name": "Do przerwy 0:1"
            },
            {
                "id": 60702939,
                "event_total": 60,
                "player_name": "FPL Mate (Dan)",
                "rank": 50,
                "last_rank": 30,
                "rank_sort": 50,
                "total": 1933,
                "entry": 527,
                "entry_name": "BSKA Sofia"
            }
        ]
    }
}