{
    "new_entries": {
        "has_next": false,
        "page": 1,
        "results": []
    },
    "last_updated_data": "2022-03-07T23:42:08Z",
    "league": {
        "id": 11,
        "name": "Liverpool",
        "created": "2021-06-22T10:37:33.072878Z",
        "closed": false,
        "max_entries": null,
        "league_type": "s",
        "scoring": "c",
        "admin_entry": null,
        "start_event": 1,
        "code_privacy": "p",
        "has_cup": true,
        "cup_league": 2400372,
        "rank": null,
        "lgCount": 1732600
    },
    "standings": {
        "has_next": true,
        "page": 1,
        "results": [
            {
                "id": 5790135,
                "event_total": 111,
                "player_name": "Christopher Post",
                "rank": 1,
                "last_rank": 6,
                "rank_sort": 1,
                "total": 2027,
                "entry": 1080063,
                "entry_name": "Hotel? Thiago"
            },
            {
                "id": 17249816,
                "event_total": 73,
                "player_name": "Anders Dugstad",
                "rank": 2,
                "last_rank": 1,
                "rank_sort": 2,
                "total": 2020,
                "entry": 2903808,
                "entry_name": "Oles Brummser"
            },
            {
                "id": 4675622,
                "event_total": 83,
                "player_name": "Hendrik Mattsson",
                "rank": 3,
                "last_rank": 3,
                "rank_sort": 3,
                "total": 2015,
                "entry": 877419,
                "entry_name": "Lanista Primus"
            },
            {
                "id": 1579484,
                "event_total": 94,
                "player_name": "Troy Hope",
                "rank": 4,
                "last_rank": 18,
                "rank_sort": 4,
                "total": 2004,
                "entry": 298337,
                "entry_name": "Lucky Prophet"
            },
            {
                "id": 3152761,
                "event_total": 81,
                "player_name": "Steven Eales",
                "rank": 5,
                "last_rank": 14,
                "rank_sort": 5,
                "total": 1995,
                "entry": 595223,
                "entry_name": "Django\u2019s Riff"
            },
            {
                "id": 230525,
                "event_total": 83,
                "player_name": "Ahmed Ayub",
                "rank": 6,
                "last_rank": 17,
                "rank_sort": 6,
                "total": 1994,
                "entry": 44897,
                "entry_name": "Gemz"
            },
            {
                "id": 2677933,
                "event_total": 93,
                "player_name": "Marius Ryeng",
                "rank": 7,
                "last_rank": 30,
                "rank_sort": 7,
                "total": 1993,
                "entry": 505048,
                "entry_name": "Sandaker FC"
            },
            {
                "id": 402594,
                "event_total": 106,
                "player_name": "Joacim Lengroth",
                "rank": 8,
                "last_rank": 53,
                "rank_sort": 8,
                "total": 1993,
                "entry": 77967,
                "entry_name": "Artisterna"
            },
            {
                "id": 37252,
                "event_total": 98,
                "player_name": "Eslam Taha",
                "rank": 9,
                "last_rank": 41,
                "rank_sort": 9,
                "total": 1990,
                "entry": 7841,
                "entry_name": "\u0623\u062d\u0641\u0627\u062f \u062a\u0627\u062c \u0627\u0644\u062f\u064a\u0646"
            },
            {
                "id": 9865,
                "event_total": 48,
                "player_name": "Daniel Masson-Abraham",
                "rank": 10,
                "last_rank": 2,
                "rank_sort": 10,
                "total": 1989,
                "entry": 2335,
                "entry_name": "Gangster's Allardyce"
            },
            {
                "id": 1319503,
                "event_total": 86,
                "player_name": "Aleksander k\u00e5sene",
                "rank": 11,
                "last_rank": 23,
                "rank_sort": 11,
                "total": 1988,
                "entry": 248779,
                "entry_name": "Balotelli-Tubbies"
            },
            {
                "id": 1281954,
                "event_total": 88,
                "player_name": "Kenneth Dahle",
                "rank": 12,
                "last_rank": 33,
                "rank_sort": 12,
                "total": 1984,
                "entry": 241812,
                "entry_name": "Jaa9&Mane"
            },
            {
                "id": 192383,
                "event_total": 65,
                "player_name": "Cristian-Anton Fi\u021b\u0103",
                "rank": 13,
                "last_rank": 5,
                "rank_sort": 13,
                "total": 1983,
                "entry": 37470,
                "entry_name": "Taurii Asasini"
            },
            {
                "id": 25888118,
                "event_total": 65,
                "player_name": "Niall Crosbie",
                "rank": 14,
                "last_rank": 11,
                "rank_sort": 14,
                "total": 1982,
                "entry": 3946131,
                "entry_name": "FC Shorts"
            },
            {
                "id": 168114,
                "event_total": 77,
                "player_name": "Ahmed Fakhry",
                "rank": 15,
                "last_rank": 19,
                "rank_sort": 15,
                "total": 1982,
                "entry": 33035,
                "entry_name": "\u0631\u0648\u062d\u0648\u0627 \u0646\u0627\u0645\u0648\u0627 \u0628\u062a\u062d\u0644\u0645\u0648\u0627"
            },
            {
                "id": 590903,
                "event_total": 69,
                "player_name": "Chris Turner",
                "rank": 16,
                "last_rank": 16,
                "rank_sort": 16,
                "total": 1980,
                "entry": 113314,
                "entry_name": "The Brothers Grimsby"
            },
            {
                "id": 22646662,
                "event_total": 65,
                "player_name": "Paul Martyres",
                "rank": 16,
                "last_rank": 12,
                "rank_sort": 17,
                "total": 1980,
                "entry": 3515236,
                "entry_name": "Si Senor"
            },
            {
                "id": 3486316,
                "event_total": 67,
                "player_name": "Bibin Vinduwa",
                "rank": 18,
                "last_rank": 15,
                "rank_sort": 18,
                "total": 1979,
                "entry": 656312,
                "entry_name": "Baka Mitai FC"
            },
            {
                "id": 1829479,
                "event_total": 59,
                "player_name": "Grant Semple",
                "rank": 19,
                "last_rank": 7,
                "rank_sort": 19,
                "total": 1978,
                "entry": 344405,
                "entry_name": "Bentekeet Up Dias FC"
            },
            {
                "id": 425175,
                "event_total": 99,
                "player_name": "Niall O'Connor",
                "rank": 20,
                "last_rank": 73,
                "rank_sort": 20,
                "total": 1978,
                "entry": 81877,
                "entry_name": "Leatherygents"
            },
            {
                "id": 324112,
                "event_total": 60,
                "player_name": "Christos Kompos",
                "rank": 21,
                "last_rank": 9,
                "rank_sort": 21,
                "total": 1978,
                "entry": 63149,
                "entry_name": "Kompos FC"
            },
            {
                "id": 30404198,
                "event_total": 58,
                "player_name": "Jeffrey Kingington",
                "rank": 22,
                "last_rank": 4,
                "rank_sort": 22,
                "total": 1978,
                "entry": 4537756,
                "entry_name": "JPD"
            },
            {
                "id": 510123,
                "event_total": 78,
                "player_name": "Derek To",
                "rank": 23,
                "last_rank": 31,
                "rank_sort": 23,
                "total": 1975,
                "entry": 97985,
                "entry_name": "Soccertricks"
            },
            {
                "id": 1096388,
                "event_total": 87,
                "player_name": "Bino Baby",
                "rank": 24,
                "last_rank": 42,
                "rank_sort": 24,
                "total": 1975,
                "entry": 207377,
                "entry_name": "Tai Lung"
            },
            {
                "id": 6444875,
                "event_total": 103,
                "player_name": "Andrew Grandin",
                "rank": 25,
                "last_rank": 108,
                "rank_sort": 25,
                "total": 1971,
                "entry": 1194464,
                "entry_name": "Cheugypool"
            },
            {
                "id": 1300304,
                "event_total": 80,
                "player_name": "Joakim Winter",
                "rank": 26,
                "last_rank": 46,
                "rank_sort": 26,
                "total": 1970,
                "entry": 245112,
                "entry_name": "Silverfang FC"
            },
            {
                "id": 14267745,
                "event_total": 64,
                "player_name": "vlada garden",
                "rank": 27,
                "last_rank": 25,
                "rank_sort": 27,
                "total": 1968,
                "entry": 2470845,
                "entry_name": "Vlada Garden"
            },
            {
                "id": 33276045,
                "event_total": 84,
                "player_name": "B\u00e5rd Backer-Owe",
                "rank": 27,
                "last_rank": 60,
                "rank_sort": 28,
                "total": 1968,
                "entry": 4906145,
                "entry_name": "Willian Nygaard"
            },
            {
                "id": 989070,
                "event_total": 87,
                "player_name": "Atli Sigur\u00f0sson",
                "rank": 29,
                "last_rank": 57,
                "rank_sort": 29,
                "total": 1968,
                "entry": 187747,
                "entry_name": "Samba"
            },
            {
                "id": 23784983,
                "event_total": 96,
                "player_name": "jamie Taylor",
                "rank": 30,
                "last_rank": 109,
                "rank_sort": 30,
                "total": 1968,
                "entry": 3666902,
                "entry_name": "AngeBall"
            },
            {
                "id": 391885,
                "event_total": 61,
                "player_name": "Matthew Mann",
                "rank": 31,
                "last_rank": 21,
                "rank_sort": 31,
                "total": 1967,
                "entry": 76074,
                "entry_name": "NabyLAD"
            },
            {
                "id": 14140,
                "event_total": 92,
                "player_name": "Paulius Uziela",
                "rank": 32,
                "last_rank": 87,
                "rank_sort": 32,
                "total": 1967,
                "entry": 3178,
                "entry_name": "Slava Ukraini!"
            },
            {
                "id": 4914102,
                "event_total": 81,
                "player_name": "Amund Moldeklev",
                "rank": 33,
                "last_rank": 55,
                "rank_sort": 33,
                "total": 1967,
                "entry": 922596,
                "entry_name": "ItsKrulToBeHartL\u00f6ssl"
            },
            {
                "id": 974475,
                "event_total": 66,
                "player_name": "Paul Lewis",
                "rank": 34,
                "last_rank": 29,
                "rank_sort": 34,
                "total": 1967,
                "entry": 184995,
                "entry_name": "The Konate kid"
            },
            {
                "id": 22559218,
                "event_total": 52,
                "player_name": "Mark Bowman",
                "rank": 35,
                "last_rank": 13,
                "rank_sort": 35,
                "total": 1966,
                "entry": 3504672,
                "entry_name": "Red Jurgenauts"
            },
            {
                "id": 1218157,
                "event_total": 73,
                "player_name": "Ensar Lekovic",
                "rank": 36,
                "last_rank": 38,
                "rank_sort": 36,
                "total": 1965,
                "entry": 229439,
                "entry_name": "YNWA Club"
            },
            {
                "id": 6304553,
                "event_total": 91,
                "player_name": "David Mc",
                "rank": 37,
                "last_rank": 56,
                "rank_sort": 37,
                "total": 1965,
                "entry": 1169767,
                "entry_name": "SAS(Slater& Shearer)"
            },
            {
                "id": 40923,
                "event_total": 68,
                "player_name": "Lucy Kember",
                "rank": 38,
                "last_rank": 32,
                "rank_sort": 38,
                "total": 1964,
                "entry": 8523,
                "entry_name": "Dirty Sanchez"
            },
            {
                "id": 27461,
                "event_total": 80,
                "player_name": "Andy Mason",
                "rank": 39,
                "last_rank": 63,
                "rank_sort": 39,
                "total": 1963,
                "entry": 5877,
                "entry_name": "SOUPY IS COOL"
            },
            {
                "id": 8667,
                "event_total": 94,
                "player_name": "Gasnafar K",
                "rank": 40,
                "last_rank": 132,
                "rank_sort": 40,
                "total": 1962,
                "entry": 2087,
                "entry_name": "Salah(C)& InshaAllah"
            },
            {
                "id": 19201,
                "event_total": 70,
                "player_name": "Sam Hackett",
                "rank": 41,
                "last_rank": 40,
                "rank_sort": 41,
                "total": 1962,
                "entry": 4245,
                "entry_name": "Klopps and robbers"
            },
            {
                "id": 185217,
                "event_total": 83,
                "player_name": "Likith Shetty",
                "rank": 42,
                "last_rank": 74,
                "rank_sort": 42,
                "total": 1962,
                "entry": 36184,
                "entry_name": "Noobmaster FC"
            },
            {
                "id": 1331567,
                "event_total": 110,
                "player_name": "Amaar Mohammed",
                "rank": 43,
                "last_rank": 280,
                "rank_sort": 43,
                "total": 1962,
                "entry": 251105,
                "entry_name": "Klopps and Robbos"
            },
            {
                "id": 860827,
                "event_total": 99,
                "player_name": "Ian Quinn",
                "rank": 44,
                "last_rank": 188,
                "rank_sort": 44,
                "total": 1961,
                "entry": 165401,
                "entry_name": "Quinner\u2019s Winners"
            },
            {
                "id": 301680,
                "event_total": 68,
                "player_name": "Patrick Osborne",
                "rank": 45,
                "last_rank": 36,
                "rank_sort": 45,
                "total": 1961,
                "entry": 58724,
                "entry_name": "George Melton's Cat"
            },
            {
                "id": 6434106,
                "event_total": 88,
                "player_name": "Anders Pettersen",
                "rank": 46,
                "last_rank": 102,
                "rank_sort": 46,
                "total": 1961,
                "entry": 1192512,
                "entry_name": "PFC"
            },
            {
                "id": 679604,
                "event_total": 80,
                "player_name": "Filip Barac",
                "rank": 47,
                "last_rank": 69,
                "rank_sort": 47,
                "total": 1961,
                "entry": 130074,
                "entry_name": "0MORALA"
            },
            {
                "id": 71945,
                "event_total": 71,
                "player_name": "Olle Sellen",
                "rank": 48,
                "last_rank": 49,
                "rank_sort": 48,
                "total": 1960,
                "entry": 14225,
                "entry_name": "OS Truppen"
            },
            {
                "id": 21283454,
                "event_total": 57,
                "player_name": "Matthew Stewart",
                "rank": 48,
                "last_rank": 27,
                "rank_sort": 49,
                "total": 1960,
                "entry": 3320949,
                "entry_name": "A Very Common Team"
            },
            {
                "id": 5494699,
                "event_total": 69,
                "player_name": "Andres B\u00e4ckblom",
                "rank": 50,
                "last_rank": 45,
                "rank_sort": 50,
                "total": 1960,
                "entry": 1028842,
                "entry_name": "FC PitStone"
            }
        ]
    }
}