{
    "new_entries": {
        "has_next": false,
        "page": 1,
        "results": []
    },
    "last_updated_data": "2022-03-07T23:42:08Z",
    "league": {
        "id": 172,
        "name": "Netherlands",
        "created": "2021-06-22T10:37:36.662258Z",
        "closed": false,
        "max_entries": null,
        "league_type": "s",
        "scoring": "c",
        "admin_entry": null,
        "start_event": 1,
        "code_privacy": "p",
        "has_cup": true,
        "cup_league": 2435849,
        "rank": null,
        "lgCount": 28050
    },
    "standings": {
        "has_next": true,
        "page": 1,
        "results": [
            {
                "id": 13790233,
                "event_total": 92,
                "player_name": "Robert Wattel",
                "rank": 1,
                "last_rank": 1,
                "rank_sort": 1,
                "total": 1993,
                "entry": 2396984,
                "entry_name": "Bafunny_Bafunny"
            },
            {
                "id": 2579531,
                "event_total": 91,
                "player_name": "jan visser",
                "rank": 2,
                "last_rank": 3,
                "rank_sort": 2,
                "total": 1965,
                "entry": 486129,
                "entry_name": "Roadto36"
            },
            {
                "id": 441970,
                "event_total": 104,
                "player_name": "Floris Hummelinck",
                "rank": 3,
                "last_rank": 18,
                "rank_sort": 3,
                "total": 1956,
                "entry": 85003,
                "entry_name": "Scarlett\u2019s E11even"
            },
            {
                "id": 16854862,
                "event_total": 91,
                "player_name": "Thomas Kaufmann",
                "rank": 4,
                "last_rank": 10,
                "rank_sort": 4,
                "total": 1951,
                "entry": 2857325,
                "entry_name": "Slurpers"
            },
            {
                "id": 743416,
                "event_total": 110,
                "player_name": "Noah van Ooijen",
                "rank": 5,
                "last_rank": 30,
                "rank_sort": 5,
                "total": 1947,
                "entry": 142372,
                "entry_name": "Expected toulouse"
            },
            {
                "id": 241475,
                "event_total": 96,
                "player_name": "Kritin TheBeast",
                "rank": 6,
                "last_rank": 19,
                "rank_sort": 6,
                "total": 1947,
                "entry": 47006,
                "entry_name": "Abate Borisov"
            },
            {
                "id": 6864709,
                "event_total": 96,
                "player_name": "Thijs Dings",
                "rank": 7,
                "last_rank": 23,
                "rank_sort": 7,
                "total": 1945,
                "entry": 1267485,
                "entry_name": "SV Venray"
            },
            {
                "id": 1782917,
                "event_total": 79,
                "player_name": "bart arends",
                "rank": 8,
                "last_rank": 7,
                "rank_sort": 8,
                "total": 1942,
                "entry": 335796,
                "entry_name": "Iheanacho with chees"
            },
            {
                "id": 866620,
                "event_total": 92,
                "player_name": "Benjamin Schulte",
                "rank": 9,
                "last_rank": 17,
                "rank_sort": 9,
                "total": 1942,
                "entry": 166550,
                "entry_name": "Vlat = goat"
            },
            {
                "id": 135078,
                "event_total": 58,
                "player_name": "Dimitri Maquin\u00e9",
                "rank": 10,
                "last_rank": 4,
                "rank_sort": 10,
                "total": 1936,
                "entry": 26471,
                "entry_name": "Mo & Co"
            },
            {
                "id": 7072583,
                "event_total": 79,
                "player_name": "Giath Mardini",
                "rank": 11,
                "last_rank": 11,
                "rank_sort": 11,
                "total": 1931,
                "entry": 1302785,
                "entry_name": "A.S.C Schr\u00f6dinger \u2605"
            },
            {
                "id": 1875179,
                "event_total": 59,
                "player_name": "Maarten Alferink",
                "rank": 12,
                "last_rank": 5,
                "rank_sort": 12,
                "total": 1930,
                "entry": 353159,
                "entry_name": "Alfie"
            },
            {
                "id": 19436489,
                "event_total": 98,
                "player_name": "Jasper van Grieken",
                "rank": 13,
                "last_rank": 25,
                "rank_sort": 13,
                "total": 1930,
                "entry": 3054024,
                "entry_name": "kuitspier"
            },
            {
                "id": 1997941,
                "event_total": 86,
                "player_name": "Steven Verbeek",
                "rank": 14,
                "last_rank": 27,
                "rank_sort": 14,
                "total": 1929,
                "entry": 373494,
                "entry_name": "Hatseflatse FC"
            },
            {
                "id": 4210605,
                "event_total": 66,
                "player_name": "Jaap Dozy",
                "rank": 15,
                "last_rank": 9,
                "rank_sort": 15,
                "total": 1928,
                "entry": 790833,
                "entry_name": "Bednareking Ball"
            },
            {
                "id": 23426998,
                "event_total": 68,
                "player_name": "Olmo van den Akker",
                "rank": 16,
                "last_rank": 15,
                "rank_sort": 16,
                "total": 1924,
                "entry": 3617768,
                "entry_name": "De Kale Hazen"
            },
            {
                "id": 1376184,
                "event_total": 41,
                "player_name": "Twan Neimeijer",
                "rank": 17,
                "last_rank": 2,
                "rank_sort": 17,
                "total": 1924,
                "entry": 259943,
                "entry_name": "Obi Wan Iwobi"
            },
            {
                "id": 794514,
                "event_total": 81,
                "player_name": "Martijn Lemmens",
                "rank": 18,
                "last_rank": 28,
                "rank_sort": 18,
                "total": 1924,
                "entry": 152336,
                "entry_name": "Marlem Wanderers"
            },
            {
                "id": 1117027,
                "event_total": 90,
                "player_name": "chi\u00ebl klinkenberg",
                "rank": 19,
                "last_rank": 36,
                "rank_sort": 19,
                "total": 1923,
                "entry": 211344,
                "entry_name": "Heavenswarrior"
            },
            {
                "id": 4921359,
                "event_total": 58,
                "player_name": "Dani\u00ebl Lammertink",
                "rank": 20,
                "last_rank": 7,
                "rank_sort": 20,
                "total": 1921,
                "entry": 923997,
                "entry_name": "Change Name"
            },
            {
                "id": 15692199,
                "event_total": 71,
                "player_name": "Sebastiaan During",
                "rank": 21,
                "last_rank": 22,
                "rank_sort": 21,
                "total": 1920,
                "entry": 2681415,
                "entry_name": "Hangover96"
            },
            {
                "id": 4616493,
                "event_total": 51,
                "player_name": "James Muyldermans",
                "rank": 22,
                "last_rank": 6,
                "rank_sort": 22,
                "total": 1918,
                "entry": 866314,
                "entry_name": "2girls1Ars\u00e8neWenger"
            },
            {
                "id": 1339030,
                "event_total": 63,
                "player_name": "Tom Sniekers",
                "rank": 23,
                "last_rank": 16,
                "rank_sort": 23,
                "total": 1918,
                "entry": 252586,
                "entry_name": "No Chelsea No Cry"
            },
            {
                "id": 39200,
                "event_total": 77,
                "player_name": "Austin Ellinor",
                "rank": 24,
                "last_rank": 31,
                "rank_sort": 24,
                "total": 1918,
                "entry": 8190,
                "entry_name": "Boom Xhakalaka!"
            },
            {
                "id": 48386,
                "event_total": 68,
                "player_name": "Jasper Haak",
                "rank": 25,
                "last_rank": 21,
                "rank_sort": 25,
                "total": 1918,
                "entry": 9899,
                "entry_name": "Redemption2122"
            },
            {
                "id": 13369,
                "event_total": 89,
                "player_name": "Robin Verhoeven",
                "rank": 26,
                "last_rank": 45,
                "rank_sort": 26,
                "total": 1917,
                "entry": 3028,
                "entry_name": "It's coming home"
            },
            {
                "id": 8419330,
                "event_total": 80,
                "player_name": "Mark van der Eng",
                "rank": 27,
                "last_rank": 40,
                "rank_sort": 27,
                "total": 1914,
                "entry": 1529929,
                "entry_name": "VanDerScary"
            },
            {
                "id": 5098321,
                "event_total": 61,
                "player_name": "MC Steelhammer",
                "rank": 28,
                "last_rank": 14,
                "rank_sort": 28,
                "total": 1911,
                "entry": 956584,
                "entry_name": "Lvivin' on a Prayer"
            },
            {
                "id": 14846072,
                "event_total": 74,
                "player_name": "Kars Ninteman",
                "rank": 29,
                "last_rank": 33,
                "rank_sort": 29,
                "total": 1909,
                "entry": 2555683,
                "entry_name": "The Famous GSG"
            },
            {
                "id": 1729374,
                "event_total": 100,
                "player_name": "Stefan vdM",
                "rank": 30,
                "last_rank": 91,
                "rank_sort": 30,
                "total": 1908,
                "entry": 325589,
                "entry_name": "Marelball"
            },
            {
                "id": 212563,
                "event_total": 94,
                "player_name": "Merijn van Namen",
                "rank": 31,
                "last_rank": 75,
                "rank_sort": 31,
                "total": 1908,
                "entry": 41441,
                "entry_name": "Merijn FC"
            },
            {
                "id": 3514772,
                "event_total": 74,
                "player_name": "Nick van den Hemel",
                "rank": 32,
                "last_rank": 42,
                "rank_sort": 32,
                "total": 1907,
                "entry": 661800,
                "entry_name": "CE8"
            },
            {
                "id": 16339337,
                "event_total": 57,
                "player_name": "Pim Claassen",
                "rank": 33,
                "last_rank": 12,
                "rank_sort": 33,
                "total": 1907,
                "entry": 2776237,
                "entry_name": "Pim Guardiola"
            },
            {
                "id": 22445,
                "event_total": 81,
                "player_name": "Jesse de Bruijne",
                "rank": 33,
                "last_rank": 51,
                "rank_sort": 34,
                "total": 1907,
                "entry": 4849,
                "entry_name": "Saen United"
            },
            {
                "id": 29075101,
                "event_total": 70,
                "player_name": "Roberts \u016apis",
                "rank": 35,
                "last_rank": 37,
                "rank_sort": 35,
                "total": 1906,
                "entry": 4368162,
                "entry_name": "Loveramento"
            },
            {
                "id": 167090,
                "event_total": 62,
                "player_name": "Paul de Vries",
                "rank": 36,
                "last_rank": 26,
                "rank_sort": 36,
                "total": 1905,
                "entry": 32821,
                "entry_name": "PATSIE PATSIE"
            },
            {
                "id": 288934,
                "event_total": 93,
                "player_name": "Jamil Tholen",
                "rank": 37,
                "last_rank": 83,
                "rank_sort": 37,
                "total": 1903,
                "entry": 56201,
                "entry_name": "Amsterdam Kings"
            },
            {
                "id": 43874589,
                "event_total": 78,
                "player_name": "Eelko Dijkstra",
                "rank": 38,
                "last_rank": 54,
                "rank_sort": 38,
                "total": 1902,
                "entry": 6219705,
                "entry_name": "Van Gaal United"
            },
            {
                "id": 3443900,
                "event_total": 60,
                "player_name": "bastiaan de visser",
                "rank": 39,
                "last_rank": 29,
                "rank_sort": 39,
                "total": 1902,
                "entry": 648573,
                "entry_name": "The Bloody Buffies*"
            },
            {
                "id": 502379,
                "event_total": 78,
                "player_name": "Emile Mieloo",
                "rank": 40,
                "last_rank": 46,
                "rank_sort": 40,
                "total": 1902,
                "entry": 96599,
                "entry_name": "Vlampijpse Boys**"
            },
            {
                "id": 89055,
                "event_total": 79,
                "player_name": "Ties Voragen",
                "rank": 41,
                "last_rank": 58,
                "rank_sort": 41,
                "total": 1901,
                "entry": 17552,
                "entry_name": "Zouma\u2019s XI"
            },
            {
                "id": 8024971,
                "event_total": 93,
                "player_name": "Mark Penman",
                "rank": 42,
                "last_rank": 74,
                "rank_sort": 42,
                "total": 1901,
                "entry": 1463781,
                "entry_name": "Too man\u00e9 cooks"
            },
            {
                "id": 13966073,
                "event_total": 58,
                "player_name": "Andrew Baldock",
                "rank": 42,
                "last_rank": 20,
                "rank_sort": 43,
                "total": 1901,
                "entry": 2424005,
                "entry_name": "One Balders"
            },
            {
                "id": 97230,
                "event_total": 61,
                "player_name": "Tim Mensink",
                "rank": 44,
                "last_rank": 34,
                "rank_sort": 44,
                "total": 1900,
                "entry": 19172,
                "entry_name": "Honeybadger United"
            },
            {
                "id": 237435,
                "event_total": 86,
                "player_name": "Joost van Bergeijk",
                "rank": 45,
                "last_rank": 71,
                "rank_sort": 45,
                "total": 1899,
                "entry": 46251,
                "entry_name": "Carefree FC"
            },
            {
                "id": 3712203,
                "event_total": 40,
                "player_name": "Ben Elliott",
                "rank": 46,
                "last_rank": 13,
                "rank_sort": 46,
                "total": 1898,
                "entry": 698245,
                "entry_name": "Diamonds FC"
            },
            {
                "id": 15549762,
                "event_total": 72,
                "player_name": "Franz v. H.",
                "rank": 47,
                "last_rank": 53,
                "rank_sort": 47,
                "total": 1898,
                "entry": 2659487,
                "entry_name": "The Messchen"
            },
            {
                "id": 31021,
                "event_total": 95,
                "player_name": "Damian .",
                "rank": 48,
                "last_rank": 107,
                "rank_sort": 48,
                "total": 1897,
                "entry": 6648,
                "entry_name": "FPL Damski"
            },
            {
                "id": 5126255,
                "event_total": 64,
                "player_name": "Owen Dorlandt",
                "rank": 49,
                "last_rank": 43,
                "rank_sort": 49,
                "total": 1897,
                "entry": 961879,
                "entry_name": "FC Egeldonk"
            },
            {
                "id": 364293,
                "event_total": 94,
                "player_name": "Simon Peek",
                "rank": 50,
                "last_rank": 113,
                "rank_sort": 50,
                "total": 1894,
                "entry": 70674,
                "entry_name": "Annie FC"
            }
        ]
    }
}