{
    "new_entries": {
        "has_next": false,
        "page": 1,
        "results": []
    },
    "last_updated_data": "2022-03-07T23:42:08Z",
    "league": {
        "id": 1801,
        "name": "Who Got The Assist? Minileague",
        "created": "2021-06-22T11:19:57.980917Z",
        "closed": true,
        "max_entries": null,
        "league_type": "x",
        "scoring": "c",
        "admin_entry": 381,
        "start_event": 1,
        "code_privacy": "p",
        "has_cup": true,
        "cup_league": 2441383,
        "rank": null,
        "lgCount": 7450
    },
    "standings": {
        "has_next": true,
        "page": 1,
        "results": [
            {
                "id": 62662998,
                "event_total": 76,
                "player_name": "H\u00e5kon Mangersnes",
                "rank": 1,
                "last_rank": 1,
                "rank_sort": 1,
                "total": 2010,
                "entry": 131,
                "entry_name": "Excel XI"
            },
            {
                "id": 62344998,
                "event_total": 94,
                "player_name": "Troy Hope",
                "rank": 2,
                "last_rank": 6,
                "rank_sort": 2,
                "total": 2004,
                "entry": 298337,
                "entry_name": "Lucky Prophet"
            },
            {
                "id": 501197,
                "event_total": 88,
                "player_name": "Sam McHaffie",
                "rank": 3,
                "last_rank": 9,
                "rank_sort": 3,
                "total": 1996,
                "entry": 96354,
                "entry_name": "Samtiago Mu\u00f1ez"
            },
            {
                "id": 402607,
                "event_total": 106,
                "player_name": "Joacim Lengroth",
                "rank": 4,
                "last_rank": 12,
                "rank_sort": 4,
                "total": 1993,
                "entry": 77967,
                "entry_name": "Artisterna"
            },
            {
                "id": 62726434,
                "event_total": 76,
                "player_name": "James S \ud83d\udc74\ud83c\udffb",
                "rank": 5,
                "last_rank": 3,
                "rank_sort": 5,
                "total": 1993,
                "entry": 10831,
                "entry_name": "Larry of Brest"
            },
            {
                "id": 2241497,
                "event_total": 74,
                "player_name": "Brett Taylor",
                "rank": 6,
                "last_rank": 4,
                "rank_sort": 6,
                "total": 1990,
                "entry": 420377,
                "entry_name": "I Love Lamp!tey"
            },
            {
                "id": 3829194,
                "event_total": 69,
                "player_name": "Chris Turner",
                "rank": 7,
                "last_rank": 5,
                "rank_sort": 7,
                "total": 1980,
                "entry": 113314,
                "entry_name": "The Brothers Grimsby"
            },
            {
                "id": 44671,
                "event_total": 70,
                "player_name": "Tor Even Pettersen",
                "rank": 8,
                "last_rank": 8,
                "rank_sort": 8,
                "total": 1980,
                "entry": 258,
                "entry_name": "Money Mase"
            },
            {
                "id": 60692320,
                "event_total": 71,
                "player_name": "Harry Solomons",
                "rank": 9,
                "last_rank": 7,
                "rank_sort": 9,
                "total": 1977,
                "entry": 612728,
                "entry_name": "Khedira pin drop"
            },
            {
                "id": 292148,
                "event_total": 59,
                "player_name": "Caleb St.Ather",
                "rank": 10,
                "last_rank": 2,
                "rank_sort": 10,
                "total": 1977,
                "entry": 56849,
                "entry_name": "Credit to the boys"
            },
            {
                "id": 16725741,
                "event_total": 87,
                "player_name": "James Coe",
                "rank": 11,
                "last_rank": 14,
                "rank_sort": 11,
                "total": 1971,
                "entry": 2838122,
                "entry_name": "BRRUUNNNOOOOOOOOO #1"
            },
            {
                "id": 48126,
                "event_total": 100,
                "player_name": "Tom Robinson",
                "rank": 12,
                "last_rank": 19,
                "rank_sort": 12,
                "total": 1969,
                "entry": 8541,
                "entry_name": "Tierney's Tesco Bag"
            },
            {
                "id": 20185924,
                "event_total": 80,
                "player_name": "Erik Hungnes",
                "rank": 13,
                "last_rank": 15,
                "rank_sort": 13,
                "total": 1961,
                "entry": 3157973,
                "entry_name": "Arte et labore"
            },
            {
                "id": 484160,
                "event_total": 85,
                "player_name": "tom Griffiths",
                "rank": 14,
                "last_rank": 13,
                "rank_sort": 14,
                "total": 1959,
                "entry": 93150,
                "entry_name": "Spirited away day"
            },
            {
                "id": 1597396,
                "event_total": 77,
                "player_name": "Anass Marti",
                "rank": 15,
                "last_rank": 16,
                "rank_sort": 15,
                "total": 1958,
                "entry": 301645,
                "entry_name": "Pedrinko"
            },
            {
                "id": 61558268,
                "event_total": 63,
                "player_name": "James Queralt",
                "rank": 16,
                "last_rank": 10,
                "rank_sort": 16,
                "total": 1956,
                "entry": 2423,
                "entry_name": "Losing My Reguilon"
            },
            {
                "id": 44838,
                "event_total": 78,
                "player_name": "Oisin Kirwan",
                "rank": 17,
                "last_rank": 18,
                "rank_sort": 17,
                "total": 1952,
                "entry": 524,
                "entry_name": "The Special Juan"
            },
            {
                "id": 62730412,
                "event_total": 87,
                "player_name": "Steve Jones",
                "rank": 18,
                "last_rank": 31,
                "rank_sort": 18,
                "total": 1951,
                "entry": 530770,
                "entry_name": "Is What it is"
            },
            {
                "id": 26983314,
                "event_total": 77,
                "player_name": "Gary Bryan",
                "rank": 19,
                "last_rank": 26,
                "rank_sort": 19,
                "total": 1947,
                "entry": 185057,
                "entry_name": "Killie Hippos"
            },
            {
                "id": 28710174,
                "event_total": 54,
                "player_name": "Scott Kent",
                "rank": 20,
                "last_rank": 11,
                "rank_sort": 20,
                "total": 1947,
                "entry": 11452,
                "entry_name": "Spreadsheet Warriors"
            },
            {
                "id": 45995,
                "event_total": 89,
                "player_name": "Si Rutherford",
                "rank": 21,
                "last_rank": 21,
                "rank_sort": 21,
                "total": 1947,
                "entry": 2117,
                "entry_name": "Heroes & Villains"
            },
            {
                "id": 300358,
                "event_total": 83,
                "player_name": "Robert Poole",
                "rank": 22,
                "last_rank": 35,
                "rank_sort": 22,
                "total": 1946,
                "entry": 58451,
                "entry_name": "Shakes & Weights"
            },
            {
                "id": 9739772,
                "event_total": 105,
                "player_name": "Sam Herring",
                "rank": 23,
                "last_rank": 79,
                "rank_sort": 23,
                "total": 1945,
                "entry": 5879,
                "entry_name": "Slumdog Mignolet"
            },
            {
                "id": 54543,
                "event_total": 104,
                "player_name": "B\u00f8rge Johnsen",
                "rank": 24,
                "last_rank": 78,
                "rank_sort": 24,
                "total": 1944,
                "entry": 10966,
                "entry_name": "Patrik B\u00f8rger FC"
            },
            {
                "id": 62662514,
                "event_total": 88,
                "player_name": "Brian Cahill",
                "rank": 25,
                "last_rank": 32,
                "rank_sort": 25,
                "total": 1944,
                "entry": 2583,
                "entry_name": "Ya ya sure sure"
            },
            {
                "id": 45175,
                "event_total": 83,
                "player_name": "Roy Grealish",
                "rank": 26,
                "last_rank": 28,
                "rank_sort": 26,
                "total": 1944,
                "entry": 927,
                "entry_name": "Finding Timo"
            },
            {
                "id": 61865347,
                "event_total": 82,
                "player_name": "Jack B",
                "rank": 27,
                "last_rank": 34,
                "rank_sort": 27,
                "total": 1941,
                "entry": 17177,
                "entry_name": "Ticking Time Rom"
            },
            {
                "id": 59343305,
                "event_total": 90,
                "player_name": "Santosh Krishna",
                "rank": 28,
                "last_rank": 49,
                "rank_sort": 28,
                "total": 1941,
                "entry": 1746,
                "entry_name": "Bhaigan ka FPL!"
            },
            {
                "id": 241204,
                "event_total": 105,
                "player_name": "Oliver Carruthers",
                "rank": 29,
                "last_rank": 93,
                "rank_sort": 29,
                "total": 1940,
                "entry": 46955,
                "entry_name": "Gini in a Bottle"
            },
            {
                "id": 62695301,
                "event_total": 89,
                "player_name": "mayank sharma",
                "rank": 29,
                "last_rank": 43,
                "rank_sort": 30,
                "total": 1940,
                "entry": 213163,
                "entry_name": "euceladaus fc"
            },
            {
                "id": 47073,
                "event_total": 78,
                "player_name": "Deniss Maksimovs",
                "rank": 31,
                "last_rank": 39,
                "rank_sort": 31,
                "total": 1937,
                "entry": 4732,
                "entry_name": "Master Den"
            },
            {
                "id": 446420,
                "event_total": 90,
                "player_name": "Rasmus Christensen",
                "rank": 32,
                "last_rank": 55,
                "rank_sort": 32,
                "total": 1934,
                "entry": 85799,
                "entry_name": "Ji-sung Park the Bus"
            },
            {
                "id": 3463307,
                "event_total": 72,
                "player_name": "David Bairstow",
                "rank": 33,
                "last_rank": 37,
                "rank_sort": 33,
                "total": 1934,
                "entry": 652109,
                "entry_name": "on your own now son"
            },
            {
                "id": 3852217,
                "event_total": 87,
                "player_name": "Andreas Johansson",
                "rank": 34,
                "last_rank": 60,
                "rank_sort": 34,
                "total": 1934,
                "entry": 118534,
                "entry_name": "Overharde United"
            },
            {
                "id": 92976,
                "event_total": 65,
                "player_name": "Marcin Mastalerczyk",
                "rank": 35,
                "last_rank": 22,
                "rank_sort": 35,
                "total": 1933,
                "entry": 18326,
                "entry_name": "Do przerwy 0:1"
            },
            {
                "id": 2729655,
                "event_total": 97,
                "player_name": "Harry Dickinson",
                "rank": 36,
                "last_rank": 90,
                "rank_sort": 36,
                "total": 1933,
                "entry": 514837,
                "entry_name": "HDFC"
            },
            {
                "id": 52026199,
                "event_total": 88,
                "player_name": "Elliot Han",
                "rank": 37,
                "last_rank": 58,
                "rank_sort": 37,
                "total": 1932,
                "entry": 61,
                "entry_name": "REECE'S Cups"
            },
            {
                "id": 47967,
                "event_total": 84,
                "player_name": "Lukas H.",
                "rank": 37,
                "last_rank": 59,
                "rank_sort": 38,
                "total": 1932,
                "entry": 7779,
                "entry_name": "Stranger Ings"
            },
            {
                "id": 743288,
                "event_total": 91,
                "player_name": "Nikola Markovic",
                "rank": 39,
                "last_rank": 53,
                "rank_sort": 39,
                "total": 1932,
                "entry": 142347,
                "entry_name": "nmrsfc"
            },
            {
                "id": 46456,
                "event_total": 94,
                "player_name": "Etnik Pozhegu",
                "rank": 40,
                "last_rank": 89,
                "rank_sort": 40,
                "total": 1931,
                "entry": 3121,
                "entry_name": "RepublikaFPL"
            },
            {
                "id": 543904,
                "event_total": 76,
                "player_name": "Sheikh Mustafa Daneesh",
                "rank": 41,
                "last_rank": 44,
                "rank_sort": 41,
                "total": 1930,
                "entry": 104750,
                "entry_name": "An Ode to The Smith"
            },
            {
                "id": 53647547,
                "event_total": 78,
                "player_name": "Jayden Chang",
                "rank": 42,
                "last_rank": 47,
                "rank_sort": 42,
                "total": 1930,
                "entry": 70782,
                "entry_name": "Changii"
            },
            {
                "id": 2131307,
                "event_total": 75,
                "player_name": "Dave Evans",
                "rank": 43,
                "last_rank": 42,
                "rank_sort": 43,
                "total": 1930,
                "entry": 398893,
                "entry_name": "Vardy's magic chin"
            },
            {
                "id": 61007025,
                "event_total": 61,
                "player_name": "Rupert Liddell",
                "rank": 44,
                "last_rank": 23,
                "rank_sort": 44,
                "total": 1928,
                "entry": 741355,
                "entry_name": "A bridge too VAR"
            },
            {
                "id": 59880078,
                "event_total": 96,
                "player_name": "Calum Stewart",
                "rank": 45,
                "last_rank": 103,
                "rank_sort": 45,
                "total": 1928,
                "entry": 40030,
                "entry_name": "Del Bhoy Jota"
            },
            {
                "id": 53064578,
                "event_total": 85,
                "player_name": "Josu\u00e9 Figuera",
                "rank": 46,
                "last_rank": 50,
                "rank_sort": 46,
                "total": 1928,
                "entry": 5229149,
                "entry_name": "Kreeds United F.C."
            },
            {
                "id": 17785436,
                "event_total": 73,
                "player_name": "Rob Brooks",
                "rank": 47,
                "last_rank": 45,
                "rank_sort": 47,
                "total": 1926,
                "entry": 1461552,
                "entry_name": "Ings You Love To See"
            },
            {
                "id": 544736,
                "event_total": 77,
                "player_name": "\u0141ukasz Wo\u017aniak",
                "rank": 48,
                "last_rank": 56,
                "rank_sort": 48,
                "total": 1925,
                "entry": 104909,
                "entry_name": "The Inmost Light"
            },
            {
                "id": 57868367,
                "event_total": 67,
                "player_name": "Ryan Mackie",
                "rank": 49,
                "last_rank": 27,
                "rank_sort": 49,
                "total": 1925,
                "entry": 28370,
                "entry_name": "Ryangers"
            },
            {
                "id": 15990006,
                "event_total": 80,
                "player_name": "Robert Bob",
                "rank": 50,
                "last_rank": 70,
                "rank_sort": 50,
                "total": 1924,
                "entry": 39551,
                "entry_name": "ChampionsterUtd"
            }
        ]
    }
}