{
    "new_entries": {
        "has_next": false,
        "page": 1,
        "results": [
            {
                "entry": 9030348,
                "entry_name": "Deadl392",
                "joined_time": "2022-03-06T06:27:45.898356Z",
                "player_first_name": "Kudzanai",
                "player_last_name": "Shamu"
            }
        ]
    },
    "last_updated_data": "2022-03-07T23:42:08Z",
    "league": {
        "id": 202348,
        "name": "The FourFourTwo Championship",
        "created": "2021-07-14T13:30:27.030395Z",
        "closed": false,
        "max_entries": null,
        "league_type": "x",
        "scoring": "c",
        "admin_entry": 901192,
        "start_event": 1,
        "code_privacy": "p",
        "has_cup": false,
        "cup_league": null,
        "rank": null,
        "lgCount": 1250
    },
    "standings": {
        "has_next": true,
        "page": 1,
        "results": [
            {
                "id": 63412802,
                "event_total": 68,
                "player_name": "Reuben Jeeva",
                "rank": 1,
                "last_rank": 1,
                "rank_sort": 1,
                "total": 1981,
                "entry": 7254,
                "entry_name": "Reuben Kazan FC"
            },
            {
                "id": 21130754,
                "event_total": 44,
                "player_name": "Donal Breslin",
                "rank": 2,
                "last_rank": 2,
                "rank_sort": 2,
                "total": 1941,
                "entry": 55939,
                "entry_name": "No Kane, no gain"
            },
            {
                "id": 31740727,
                "event_total": 81,
                "player_name": "Saul Manasse",
                "rank": 3,
                "last_rank": 5,
                "rank_sort": 3,
                "total": 1927,
                "entry": 57280,
                "entry_name": "A Shaw Thing"
            },
            {
                "id": 31808151,
                "event_total": 67,
                "player_name": "james early",
                "rank": 4,
                "last_rank": 3,
                "rank_sort": 4,
                "total": 1924,
                "entry": 248855,
                "entry_name": "Kobayashi Maru"
            },
            {
                "id": 44017759,
                "event_total": 67,
                "player_name": "Kieran \u3164",
                "rank": 5,
                "last_rank": 4,
                "rank_sort": 5,
                "total": 1914,
                "entry": 4505830,
                "entry_name": "Ket'ring Town FC"
            },
            {
                "id": 45906475,
                "event_total": 95,
                "player_name": "Lan Fitz",
                "rank": 6,
                "last_rank": 12,
                "rank_sort": 6,
                "total": 1908,
                "entry": 5470898,
                "entry_name": "Wolbes"
            },
            {
                "id": 13253351,
                "event_total": 64,
                "player_name": "Manvir Sandher",
                "rank": 7,
                "last_rank": 7,
                "rank_sort": 7,
                "total": 1907,
                "entry": 1206565,
                "entry_name": "greaLASH"
            },
            {
                "id": 40420889,
                "event_total": 62,
                "player_name": "Carlos Barros",
                "rank": 8,
                "last_rank": 6,
                "rank_sort": 8,
                "total": 1905,
                "entry": 2949968,
                "entry_name": "ABCDE FC"
            },
            {
                "id": 33590444,
                "event_total": 62,
                "player_name": "Miles McCulloch",
                "rank": 9,
                "last_rank": 9,
                "rank_sort": 9,
                "total": 1893,
                "entry": 365497,
                "entry_name": "Nile Rangers"
            },
            {
                "id": 33001306,
                "event_total": 96,
                "player_name": "Daniel Reza",
                "rank": 10,
                "last_rank": 22,
                "rank_sort": 10,
                "total": 1889,
                "entry": 5939,
                "entry_name": "Rezas FK"
            },
            {
                "id": 40226617,
                "event_total": 55,
                "player_name": "Damir Kraljevic",
                "rank": 11,
                "last_rank": 8,
                "rank_sort": 11,
                "total": 1888,
                "entry": 31442,
                "entry_name": "Acadamir"
            },
            {
                "id": 32427421,
                "event_total": 83,
                "player_name": "Niklas Busk-Jensen",
                "rank": 12,
                "last_rank": 18,
                "rank_sort": 12,
                "total": 1888,
                "entry": 7576,
                "entry_name": "Urmele Bhoys"
            },
            {
                "id": 32125980,
                "event_total": 61,
                "player_name": "Tibi Andronescu",
                "rank": 13,
                "last_rank": 11,
                "rank_sort": 13,
                "total": 1885,
                "entry": 2265398,
                "entry_name": "Dewritos FC"
            },
            {
                "id": 43599969,
                "event_total": 75,
                "player_name": "Fabian Gauna",
                "rank": 14,
                "last_rank": 17,
                "rank_sort": 14,
                "total": 1884,
                "entry": 5624185,
                "entry_name": "Drinkwater Not Koke"
            },
            {
                "id": 46739630,
                "event_total": 64,
                "player_name": "chris abbott",
                "rank": 15,
                "last_rank": 13,
                "rank_sort": 15,
                "total": 1880,
                "entry": 2349913,
                "entry_name": "Yeshua's Army"
            },
            {
                "id": 30827968,
                "event_total": 53,
                "player_name": "Sean Murphy",
                "rank": 16,
                "last_rank": 10,
                "rank_sort": 16,
                "total": 1879,
                "entry": 51136,
                "entry_name": "Murphy's Men"
            },
            {
                "id": 29703277,
                "event_total": 59,
                "player_name": "Ishaq Bolarinwa",
                "rank": 17,
                "last_rank": 14,
                "rank_sort": 17,
                "total": 1878,
                "entry": 4439777,
                "entry_name": "ishhhhhh"
            },
            {
                "id": 34542852,
                "event_total": 108,
                "player_name": "Jon Earle",
                "rank": 18,
                "last_rank": 36,
                "rank_sort": 18,
                "total": 1876,
                "entry": 1959,
                "entry_name": "Aerial Tigers"
            },
            {
                "id": 26239737,
                "event_total": 94,
                "player_name": "Kieran Harnett",
                "rank": 19,
                "last_rank": 30,
                "rank_sort": 19,
                "total": 1874,
                "entry": 3988656,
                "entry_name": "CHANGE NAME"
            },
            {
                "id": 33171956,
                "event_total": 78,
                "player_name": "Kurt Dixon",
                "rank": 20,
                "last_rank": 16,
                "rank_sort": 20,
                "total": 1873,
                "entry": 10262,
                "entry_name": "Make Me Famous"
            },
            {
                "id": 40246211,
                "event_total": 79,
                "player_name": "Corm\u00e1c Kelly",
                "rank": 21,
                "last_rank": 23,
                "rank_sort": 21,
                "total": 1865,
                "entry": 95290,
                "entry_name": "Stick Matip In"
            },
            {
                "id": 31258698,
                "event_total": 66,
                "player_name": "Anique Haque",
                "rank": 21,
                "last_rank": 19,
                "rank_sort": 22,
                "total": 1865,
                "entry": 1227996,
                "entry_name": "Black & White"
            },
            {
                "id": 45627241,
                "event_total": 50,
                "player_name": "Magnus Medgard",
                "rank": 23,
                "last_rank": 15,
                "rank_sort": 23,
                "total": 1863,
                "entry": 236954,
                "entry_name": "Shaw and Order"
            },
            {
                "id": 40904479,
                "event_total": 72,
                "player_name": "Robert Beasley",
                "rank": 24,
                "last_rank": 28,
                "rank_sort": 24,
                "total": 1857,
                "entry": 1687130,
                "entry_name": "Caw Blade"
            },
            {
                "id": 44304900,
                "event_total": 70,
                "player_name": "Micha\u0142 Tylek",
                "rank": 25,
                "last_rank": 25,
                "rank_sort": 25,
                "total": 1856,
                "entry": 4482303,
                "entry_name": "Tyloo's Team \ufffd"
            },
            {
                "id": 40531185,
                "event_total": 70,
                "player_name": "Ashley Christie",
                "rank": 26,
                "last_rank": 26,
                "rank_sort": 26,
                "total": 1856,
                "entry": 2710501,
                "entry_name": "Bolton Squanderers"
            },
            {
                "id": 36910396,
                "event_total": 72,
                "player_name": "Steve Harris",
                "rank": 27,
                "last_rank": 24,
                "rank_sort": 27,
                "total": 1856,
                "entry": 1640120,
                "entry_name": "Shambles FC"
            },
            {
                "id": 52242447,
                "event_total": 84,
                "player_name": "Nii Smiley",
                "rank": 28,
                "last_rank": 54,
                "rank_sort": 28,
                "total": 1843,
                "entry": 980144,
                "entry_name": "Golden State Byte"
            },
            {
                "id": 30608978,
                "event_total": 59,
                "player_name": "Ji Jie Ong",
                "rank": 29,
                "last_rank": 32,
                "rank_sort": 29,
                "total": 1842,
                "entry": 3144899,
                "entry_name": "Devils XI"
            },
            {
                "id": 46132069,
                "event_total": 89,
                "player_name": "Eren Karaahmeto\u011flu",
                "rank": 30,
                "last_rank": 62,
                "rank_sort": 30,
                "total": 1842,
                "entry": 3069133,
                "entry_name": "Ribellas'"
            },
            {
                "id": 10687912,
                "event_total": 57,
                "player_name": "Robert Ingram",
                "rank": 31,
                "last_rank": 29,
                "rank_sort": 31,
                "total": 1842,
                "entry": 322193,
                "entry_name": "ZFC"
            },
            {
                "id": 40092733,
                "event_total": 81,
                "player_name": "Jay Lim",
                "rank": 32,
                "last_rank": 47,
                "rank_sort": 32,
                "total": 1841,
                "entry": 979,
                "entry_name": "All Blacks"
            },
            {
                "id": 37623301,
                "event_total": 72,
                "player_name": "Hasnaan Khan",
                "rank": 33,
                "last_rank": 48,
                "rank_sort": 33,
                "total": 1838,
                "entry": 4349013,
                "entry_name": "Cobra Kai"
            },
            {
                "id": 32527322,
                "event_total": 45,
                "player_name": "Ivar Josefsson",
                "rank": 33,
                "last_rank": 21,
                "rank_sort": 34,
                "total": 1838,
                "entry": 994467,
                "entry_name": "SondayNightFootball"
            },
            {
                "id": 7942072,
                "event_total": 67,
                "player_name": "James Dyas",
                "rank": 35,
                "last_rank": 42,
                "rank_sort": 35,
                "total": 1836,
                "entry": 5702,
                "entry_name": "AFB Azzurri"
            },
            {
                "id": 59893132,
                "event_total": 99,
                "player_name": "Francisco Afonso",
                "rank": 36,
                "last_rank": 79,
                "rank_sort": 36,
                "total": 1836,
                "entry": 4734553,
                "entry_name": "Deboche FC"
            },
            {
                "id": 42509987,
                "event_total": 59,
                "player_name": "James Tosdevin",
                "rank": 37,
                "last_rank": 38,
                "rank_sort": 37,
                "total": 1835,
                "entry": 44185,
                "entry_name": "Of Mice and Mendy"
            },
            {
                "id": 7182654,
                "event_total": 54,
                "player_name": "Simon Margolis",
                "rank": 38,
                "last_rank": 35,
                "rank_sort": 38,
                "total": 1835,
                "entry": 46039,
                "entry_name": "DontLookBackTanganga"
            },
            {
                "id": 34967188,
                "event_total": 81,
                "player_name": "Tim Ward",
                "rank": 39,
                "last_rank": 56,
                "rank_sort": 39,
                "total": 1833,
                "entry": 43374,
                "entry_name": "Dreams can\u2019t be buy"
            },
            {
                "id": 30522011,
                "event_total": 77,
                "player_name": "Adrian B",
                "rank": 40,
                "last_rank": 59,
                "rank_sort": 40,
                "total": 1832,
                "entry": 4146564,
                "entry_name": "BLM"
            },
            {
                "id": 43443884,
                "event_total": 52,
                "player_name": "Cian C",
                "rank": 41,
                "last_rank": 31,
                "rank_sort": 41,
                "total": 1831,
                "entry": 5979357,
                "entry_name": "Spacer\u2019s Chosen"
            },
            {
                "id": 36985874,
                "event_total": 67,
                "player_name": "David Morrow",
                "rank": 42,
                "last_rank": 40,
                "rank_sort": 42,
                "total": 1831,
                "entry": 941100,
                "entry_name": "Sterling Silva"
            },
            {
                "id": 38315177,
                "event_total": 62,
                "player_name": "A K",
                "rank": 43,
                "last_rank": 43,
                "rank_sort": 43,
                "total": 1830,
                "entry": 1422873,
                "entry_name": "Toney Deaf"
            },
            {
                "id": 33840733,
                "event_total": 43,
                "player_name": "Durall Sebastian",
                "rank": 44,
                "last_rank": 20,
                "rank_sort": 44,
                "total": 1829,
                "entry": 265985,
                "entry_name": "Don't be a Kant\u00e9"
            },
            {
                "id": 45585982,
                "event_total": 78,
                "player_name": "Rayhan Fauzta",
                "rank": 45,
                "last_rank": 63,
                "rank_sort": 45,
                "total": 1827,
                "entry": 411113,
                "entry_name": "Toney Stark"
            },
            {
                "id": 40658445,
                "event_total": 55,
                "player_name": "Adrian Adams",
                "rank": 46,
                "last_rank": 39,
                "rank_sort": 46,
                "total": 1826,
                "entry": 3612255,
                "entry_name": "Adamski Killers"
            },
            {
                "id": 11650062,
                "event_total": 69,
                "player_name": "Nick Guthrie",
                "rank": 47,
                "last_rank": 53,
                "rank_sort": 47,
                "total": 1825,
                "entry": 337791,
                "entry_name": "Whole Jota Love"
            },
            {
                "id": 63433670,
                "event_total": 47,
                "player_name": "Gyles Bicknell",
                "rank": 48,
                "last_rank": 34,
                "rank_sort": 48,
                "total": 1825,
                "entry": 1871375,
                "entry_name": "spicy chicken stripe"
            },
            {
                "id": 7942227,
                "event_total": 55,
                "player_name": "Olaf Jankowicz",
                "rank": 49,
                "last_rank": 44,
                "rank_sort": 49,
                "total": 1823,
                "entry": 112480,
                "entry_name": "Asfalt R*"
            },
            {
                "id": 42631509,
                "event_total": 60,
                "player_name": "Adam Jobling",
                "rank": 50,
                "last_rank": 51,
                "rank_sort": 50,
                "total": 1822,
                "entry": 8915,
                "entry_name": "The Spruce Bruce"
            }
        ]
    }
}