{
    "new_entries": {
        "has_next": false,
        "page": 1,
        "results": []
    },
    "last_updated_data": "2022-04-10T19:06:20Z",
    "league": {
        "id": 295539,
        "name": "Fantasy 606",
        "created": "2021-07-23T12:39:21.706357Z",
        "closed": true,
        "max_entries": null,
        "league_type": "x",
        "scoring": "c",
        "admin_entry": 1503931,
        "start_event": 1,
        "code_privacy": "p",
        "has_cup": true,
        "cup_league": 2435869,
        "rank": null,
        "lgCount": 21727
    },
    "standings": {
        "has_next": true,
        "page": 1,
        "results": [
            {
                "id": 8268667,
                "event_total": 84,
                "player_name": "Ryan Mackie",
                "rank": 1,
                "last_rank": 1,
                "rank_sort": 1,
                "total": 2290,
                "entry": 28370,
                "entry_name": "Ryangers"
            },
            {
                "id": 9294804,
                "event_total": 98,
                "player_name": "James Ingram",
                "rank": 2,
                "last_rank": 5,
                "rank_sort": 2,
                "total": 2281,
                "entry": 1601,
                "entry_name": "Lola's Theme"
            },
            {
                "id": 8264411,
                "event_total": 81,
                "player_name": "Ben Davies",
                "rank": 3,
                "last_rank": 3,
                "rank_sort": 3,
                "total": 2280,
                "entry": 114759,
                "entry_name": "Spot The Pom"
            },
            {
                "id": 31731280,
                "event_total": 90,
                "player_name": "Jake Maine",
                "rank": 4,
                "last_rank": 7,
                "rank_sort": 4,
                "total": 2260,
                "entry": 148905,
                "entry_name": "Kepa clean sheet"
            },
            {
                "id": 8266334,
                "event_total": 48,
                "player_name": "David McQueen",
                "rank": 5,
                "last_rank": 2,
                "rank_sort": 5,
                "total": 2254,
                "entry": 1169767,
                "entry_name": "Eye Test Dave"
            },
            {
                "id": 10214766,
                "event_total": 62,
                "player_name": "Shireesh Khandkar",
                "rank": 6,
                "last_rank": 4,
                "rank_sort": 6,
                "total": 2251,
                "entry": 1830934,
                "entry_name": "Boring Team"
            },
            {
                "id": 33975670,
                "event_total": 67,
                "player_name": "Louie Fine",
                "rank": 7,
                "last_rank": 6,
                "rank_sort": 7,
                "total": 2247,
                "entry": 11926,
                "entry_name": "Romero and Juliet"
            },
            {
                "id": 57572899,
                "event_total": 98,
                "player_name": "Alex Scott",
                "rank": 8,
                "last_rank": 33,
                "rank_sort": 8,
                "total": 2243,
                "entry": 76,
                "entry_name": "Tekkerslovakia"
            },
            {
                "id": 27796222,
                "event_total": 67,
                "player_name": "Iain Donald",
                "rank": 9,
                "last_rank": 10,
                "rank_sort": 9,
                "total": 2233,
                "entry": 221336,
                "entry_name": "Boca Gingers"
            },
            {
                "id": 8266099,
                "event_total": 82,
                "player_name": "Joe Parsons",
                "rank": 10,
                "last_rank": 24,
                "rank_sort": 10,
                "total": 2230,
                "entry": 19299,
                "entry_name": "Parsons' players"
            },
            {
                "id": 8269047,
                "event_total": 87,
                "player_name": "Richard Wade",
                "rank": 11,
                "last_rank": 37,
                "rank_sort": 11,
                "total": 2229,
                "entry": 151952,
                "entry_name": "YesSarr I can boogie"
            },
            {
                "id": 36813825,
                "event_total": 57,
                "player_name": "Tim Brown",
                "rank": 12,
                "last_rank": 9,
                "rank_sort": 12,
                "total": 2228,
                "entry": 2387,
                "entry_name": "Mohammed Sally-Sue"
            },
            {
                "id": 8267915,
                "event_total": 81,
                "player_name": "Patrick Chalmers",
                "rank": 13,
                "last_rank": 26,
                "rank_sort": 13,
                "total": 2228,
                "entry": 290562,
                "entry_name": "Only Kruls & Horses"
            },
            {
                "id": 32464793,
                "event_total": 74,
                "player_name": "Alex Godwin",
                "rank": 14,
                "last_rank": 20,
                "rank_sort": 14,
                "total": 2226,
                "entry": 3682501,
                "entry_name": "Hakuna Juan Mata *"
            },
            {
                "id": 8267641,
                "event_total": 60,
                "player_name": "Calum Stewart",
                "rank": 15,
                "last_rank": 12,
                "rank_sort": 15,
                "total": 2225,
                "entry": 40030,
                "entry_name": "Del Bhoy Jota"
            },
            {
                "id": 8269758,
                "event_total": 78,
                "player_name": "Jack Macdonald",
                "rank": 16,
                "last_rank": 30,
                "rank_sort": 16,
                "total": 2225,
                "entry": 6444,
                "entry_name": "Bottlers FC"
            },
            {
                "id": 51396390,
                "event_total": 88,
                "player_name": "Henry Knight Lozano",
                "rank": 17,
                "last_rank": 48,
                "rank_sort": 17,
                "total": 2224,
                "entry": 1410486,
                "entry_name": "Totnes Monster"
            },
            {
                "id": 25598891,
                "event_total": 49,
                "player_name": "Jonathan Smith",
                "rank": 18,
                "last_rank": 8,
                "rank_sort": 18,
                "total": 2222,
                "entry": 385086,
                "entry_name": "trapped unde Rice"
            },
            {
                "id": 25013372,
                "event_total": 72,
                "player_name": "timmy baldock",
                "rank": 19,
                "last_rank": 22,
                "rank_sort": 19,
                "total": 2222,
                "entry": 98088,
                "entry_name": "Sarr grilled"
            },
            {
                "id": 8267346,
                "event_total": 66,
                "player_name": "Siddharth Sivashankar",
                "rank": 20,
                "last_rank": 16,
                "rank_sort": 20,
                "total": 2221,
                "entry": 31042,
                "entry_name": "51//49"
            },
            {
                "id": 8271962,
                "event_total": 58,
                "player_name": "Justin Abercrombie",
                "rank": 21,
                "last_rank": 13,
                "rank_sort": 21,
                "total": 2219,
                "entry": 110455,
                "entry_name": "SeagullsRising"
            },
            {
                "id": 23465161,
                "event_total": 58,
                "player_name": "Ben POTTER",
                "rank": 22,
                "last_rank": 14,
                "rank_sort": 22,
                "total": 2219,
                "entry": 3622886,
                "entry_name": "Pottingham Hot Sauce"
            },
            {
                "id": 52355181,
                "event_total": 60,
                "player_name": "James Lyon",
                "rank": 22,
                "last_rank": 15,
                "rank_sort": 23,
                "total": 2219,
                "entry": 4630992,
                "entry_name": "Lyon\u2019s Pride"
            },
            {
                "id": 56864890,
                "event_total": 69,
                "player_name": "Ben Webster",
                "rank": 24,
                "last_rank": 17,
                "rank_sort": 24,
                "total": 2219,
                "entry": 857213,
                "entry_name": "24BenW"
            },
            {
                "id": 51528611,
                "event_total": 79,
                "player_name": "James Trysburg",
                "rank": 25,
                "last_rank": 41,
                "rank_sort": 25,
                "total": 2218,
                "entry": 839049,
                "entry_name": "Sent 2 the bleachers"
            },
            {
                "id": 8499378,
                "event_total": 63,
                "player_name": "Malo Fowle",
                "rank": 26,
                "last_rank": 19,
                "rank_sort": 26,
                "total": 2217,
                "entry": 110486,
                "entry_name": "change name"
            },
            {
                "id": 21354911,
                "event_total": 94,
                "player_name": "Ben Gilbert",
                "rank": 27,
                "last_rank": 76,
                "rank_sort": 27,
                "total": 2216,
                "entry": 3331443,
                "entry_name": "Gangsta\u2019s Allardyce"
            },
            {
                "id": 39128103,
                "event_total": 79,
                "player_name": "chris costa",
                "rank": 28,
                "last_rank": 45,
                "rank_sort": 28,
                "total": 2216,
                "entry": 262017,
                "entry_name": "Champ19ns"
            },
            {
                "id": 16783669,
                "event_total": 85,
                "player_name": "Andrew Peskett",
                "rank": 29,
                "last_rank": 55,
                "rank_sort": 29,
                "total": 2216,
                "entry": 2847074,
                "entry_name": "BadTransfers\"R\"Us"
            },
            {
                "id": 8265578,
                "event_total": 70,
                "player_name": "Joe Vaughan",
                "rank": 30,
                "last_rank": 23,
                "rank_sort": 30,
                "total": 2214,
                "entry": 2963,
                "entry_name": "Why Always Mee?"
            },
            {
                "id": 29902756,
                "event_total": 71,
                "player_name": "Henry Riley",
                "rank": 31,
                "last_rank": 35,
                "rank_sort": 31,
                "total": 2214,
                "entry": 1351474,
                "entry_name": "Nathan trAKE n trace"
            },
            {
                "id": 8268318,
                "event_total": 86,
                "player_name": "Lee Druce",
                "rank": 32,
                "last_rank": 64,
                "rank_sort": 32,
                "total": 2213,
                "entry": 751147,
                "entry_name": "Up The Cherries"
            },
            {
                "id": 8267985,
                "event_total": 72,
                "player_name": "Andy Malcolm",
                "rank": 33,
                "last_rank": 40,
                "rank_sort": 33,
                "total": 2212,
                "entry": 4253,
                "entry_name": "Pique and De Bruyne"
            },
            {
                "id": 8269680,
                "event_total": 64,
                "player_name": "Stephen Byrne",
                "rank": 34,
                "last_rank": 31,
                "rank_sort": 34,
                "total": 2210,
                "entry": 888349,
                "entry_name": "Still Saving Bees"
            },
            {
                "id": 8265160,
                "event_total": 63,
                "player_name": "Ben Boutwood",
                "rank": 35,
                "last_rank": 26,
                "rank_sort": 35,
                "total": 2210,
                "entry": 379755,
                "entry_name": "Benit St. Petersburg"
            },
            {
                "id": 43328166,
                "event_total": 49,
                "player_name": "Greg Mckenzie",
                "rank": 36,
                "last_rank": 11,
                "rank_sort": 36,
                "total": 2210,
                "entry": 1808354,
                "entry_name": "McGinn and Tonic"
            },
            {
                "id": 35352178,
                "event_total": 82,
                "player_name": "Daniel Turner",
                "rank": 37,
                "last_rank": 65,
                "rank_sort": 37,
                "total": 2209,
                "entry": 5162960,
                "entry_name": "Momo Ham United"
            },
            {
                "id": 8265850,
                "event_total": 84,
                "player_name": "Henry Heas",
                "rank": 38,
                "last_rank": 70,
                "rank_sort": 38,
                "total": 2208,
                "entry": 32539,
                "entry_name": "Henroid Cheas F.C."
            },
            {
                "id": 8267818,
                "event_total": 70,
                "player_name": "Redditor (Jack)",
                "rank": 39,
                "last_rank": 42,
                "rank_sort": 39,
                "total": 2208,
                "entry": 38906,
                "entry_name": "Audi TT"
            },
            {
                "id": 32028350,
                "event_total": 61,
                "player_name": "Shahanur Ahmed",
                "rank": 40,
                "last_rank": 21,
                "rank_sort": 40,
                "total": 2208,
                "entry": 4754403,
                "entry_name": "Masuma(n) United"
            },
            {
                "id": 8267633,
                "event_total": 61,
                "player_name": "Ryan Nicholson",
                "rank": 41,
                "last_rank": 29,
                "rank_sort": 41,
                "total": 2208,
                "entry": 19227,
                "entry_name": "De Bruyne Supremacy"
            },
            {
                "id": 8271856,
                "event_total": 51,
                "player_name": "J Martin aka \u201cPilot Flame\u201d",
                "rank": 41,
                "last_rank": 18,
                "rank_sort": 42,
                "total": 2208,
                "entry": 280913,
                "entry_name": "Hop Skip Jorginho"
            },
            {
                "id": 57405368,
                "event_total": 62,
                "player_name": "Geraint Owen",
                "rank": 41,
                "last_rank": 32,
                "rank_sort": 43,
                "total": 2208,
                "entry": 2720316,
                "entry_name": "Co ni te' Konat\u00e9"
            },
            {
                "id": 46329123,
                "event_total": 58,
                "player_name": "William Killeen",
                "rank": 44,
                "last_rank": 24,
                "rank_sort": 44,
                "total": 2206,
                "entry": 2925203,
                "entry_name": "Dem Blayards #1"
            },
            {
                "id": 8266293,
                "event_total": 58,
                "player_name": "Matthew Anderson",
                "rank": 45,
                "last_rank": 28,
                "rank_sort": 45,
                "total": 2205,
                "entry": 125710,
                "entry_name": "Better with Arteta"
            },
            {
                "id": 8270173,
                "event_total": 80,
                "player_name": "Ondrej Veigl",
                "rank": 46,
                "last_rank": 74,
                "rank_sort": 46,
                "total": 2203,
                "entry": 312802,
                "entry_name": "Dyslexia United"
            },
            {
                "id": 8265257,
                "event_total": 74,
                "player_name": "James Stebbings",
                "rank": 47,
                "last_rank": 61,
                "rank_sort": 47,
                "total": 2202,
                "entry": 740929,
                "entry_name": "The Special Pun"
            },
            {
                "id": 61050513,
                "event_total": 74,
                "player_name": "Ethan McCullough",
                "rank": 47,
                "last_rank": 59,
                "rank_sort": 48,
                "total": 2202,
                "entry": 2321305,
                "entry_name": "Bucket Lungs XI"
            },
            {
                "id": 29843122,
                "event_total": 86,
                "player_name": "James Cooper",
                "rank": 49,
                "last_rank": 92,
                "rank_sort": 49,
                "total": 2201,
                "entry": 174902,
                "entry_name": "Stretford End Crew"
            },
            {
                "id": 8414318,
                "event_total": 59,
                "player_name": "Sean Dunlop",
                "rank": 50,
                "last_rank": 36,
                "rank_sort": 50,
                "total": 2201,
                "entry": 210405,
                "entry_name": "Chaosball"
            }
        ]
    }
}