{
    "new_entries": {
        "has_next": false,
        "page": 1,
        "results": [
            {
                "entry": 6353792,
                "entry_name": "\u0631\u0628\u0646\u0627 \u064a\u062e\u0644\u064a\u0647\u0645 \u0644\u0643",
                "joined_time": "2022-03-08T08:58:20.737186Z",
                "player_first_name": "Sameh",
                "player_last_name": "Sayed"
            }
        ]
    },
    "last_updated_data": "2022-03-07T23:42:08Z",
    "league": {
        "id": 2110,
        "name": "@TheFPLWay",
        "created": "2021-06-22T11:21:37.974759Z",
        "closed": false,
        "max_entries": null,
        "league_type": "x",
        "scoring": "c",
        "admin_entry": 2220,
        "start_event": 1,
        "code_privacy": "p",
        "has_cup": true,
        "cup_league": 2446390,
        "rank": null,
        "lgCount": 3750
    },
    "standings": {
        "has_next": true,
        "page": 1,
        "results": [
            {
                "id": 33710780,
                "event_total": 48,
                "player_name": "Daniel Masson-Abraham",
                "rank": 1,
                "last_rank": 1,
                "rank_sort": 1,
                "total": 1989,
                "entry": 2335,
                "entry_name": "Gangster's Allardyce"
            },
            {
                "id": 5518876,
                "event_total": 69,
                "player_name": "Chris Turner",
                "rank": 2,
                "last_rank": 2,
                "rank_sort": 2,
                "total": 1980,
                "entry": 113314,
                "entry_name": "The Brothers Grimsby"
            },
            {
                "id": 10271724,
                "event_total": 73,
                "player_name": "Cathal Walsh",
                "rank": 3,
                "last_rank": 3,
                "rank_sort": 3,
                "total": 1975,
                "entry": 96555,
                "entry_name": "Pjanic at the Isco"
            },
            {
                "id": 38585603,
                "event_total": 88,
                "player_name": "Mudit Malik",
                "rank": 4,
                "last_rank": 6,
                "rank_sort": 4,
                "total": 1967,
                "entry": 2930,
                "entry_name": "Entourage"
            },
            {
                "id": 30675644,
                "event_total": 60,
                "player_name": "Damien Ruigrok",
                "rank": 5,
                "last_rank": 5,
                "rank_sort": 5,
                "total": 1946,
                "entry": 60997,
                "entry_name": "Dteam"
            },
            {
                "id": 21110592,
                "event_total": 44,
                "player_name": "Donal Breslin",
                "rank": 6,
                "last_rank": 4,
                "rank_sort": 6,
                "total": 1941,
                "entry": 55939,
                "entry_name": "No Kane, no gain"
            },
            {
                "id": 64058598,
                "event_total": 55,
                "player_name": "Mayron N.Green",
                "rank": 7,
                "last_rank": 8,
                "rank_sort": 7,
                "total": 1935,
                "entry": 1373439,
                "entry_name": "Masuaku waka eh eh"
            },
            {
                "id": 64292016,
                "event_total": 78,
                "player_name": "Liam Hellstr\u00f6m",
                "rank": 8,
                "last_rank": 0,
                "rank_sort": 8,
                "total": 1935,
                "entry": 142985,
                "entry_name": "Bois IF"
            },
            {
                "id": 5853251,
                "event_total": 72,
                "player_name": "Abdou Nasri",
                "rank": 9,
                "last_rank": 10,
                "rank_sort": 9,
                "total": 1934,
                "entry": 23743,
                "entry_name": "The Normal \u00d4ne"
            },
            {
                "id": 11345908,
                "event_total": 51,
                "player_name": "zarko jovovic",
                "rank": 10,
                "last_rank": 7,
                "rank_sort": 10,
                "total": 1934,
                "entry": 1174021,
                "entry_name": "Hello"
            },
            {
                "id": 31132053,
                "event_total": 64,
                "player_name": "Josh Edwards",
                "rank": 11,
                "last_rank": 9,
                "rank_sort": 11,
                "total": 1931,
                "entry": 1335091,
                "entry_name": "Shawberto Carlos"
            },
            {
                "id": 43021478,
                "event_total": 82,
                "player_name": "Alfie Jones",
                "rank": 12,
                "last_rank": 14,
                "rank_sort": 12,
                "total": 1930,
                "entry": 6057430,
                "entry_name": "Gangsters Allardyce"
            },
            {
                "id": 30072299,
                "event_total": 72,
                "player_name": "Bobby Cole",
                "rank": 13,
                "last_rank": 11,
                "rank_sort": 13,
                "total": 1929,
                "entry": 179334,
                "entry_name": "TeaForTheTielemans*"
            },
            {
                "id": 23655579,
                "event_total": 88,
                "player_name": "Albin Widell",
                "rank": 14,
                "last_rank": 20,
                "rank_sort": 14,
                "total": 1924,
                "entry": 399346,
                "entry_name": "Lord of the Ings"
            },
            {
                "id": 6945014,
                "event_total": 86,
                "player_name": "Rohan Chaini",
                "rank": 15,
                "last_rank": 25,
                "rank_sort": 15,
                "total": 1918,
                "entry": 1075246,
                "entry_name": "Chelsea"
            },
            {
                "id": 6944980,
                "event_total": 75,
                "player_name": "Donal Hannigan",
                "rank": 16,
                "last_rank": 17,
                "rank_sort": 16,
                "total": 1915,
                "entry": 1423,
                "entry_name": "Donies Duds"
            },
            {
                "id": 35753465,
                "event_total": 85,
                "player_name": "Ismail Kabakci",
                "rank": 17,
                "last_rank": 30,
                "rank_sort": 17,
                "total": 1910,
                "entry": 25781,
                "entry_name": "Aegean"
            },
            {
                "id": 45899924,
                "event_total": 95,
                "player_name": "Lan Fitz",
                "rank": 18,
                "last_rank": 34,
                "rank_sort": 18,
                "total": 1908,
                "entry": 5470898,
                "entry_name": "Wolbes"
            },
            {
                "id": 5541177,
                "event_total": 74,
                "player_name": "Anis binporhsoo",
                "rank": 18,
                "last_rank": 22,
                "rank_sort": 19,
                "total": 1908,
                "entry": 817621,
                "entry_name": "Italian job"
            },
            {
                "id": 15818481,
                "event_total": 61,
                "player_name": "Papa Amos",
                "rank": 20,
                "last_rank": 15,
                "rank_sort": 20,
                "total": 1904,
                "entry": 401065,
                "entry_name": "PhantoM"
            },
            {
                "id": 42250549,
                "event_total": 67,
                "player_name": "Kwek Zheng Wei",
                "rank": 21,
                "last_rank": 19,
                "rank_sort": 21,
                "total": 1902,
                "entry": 294248,
                "entry_name": "3rdTimesTheCharm"
            },
            {
                "id": 50817003,
                "event_total": 88,
                "player_name": "Petar Delcev",
                "rank": 22,
                "last_rank": 46,
                "rank_sort": 22,
                "total": 1902,
                "entry": 1815652,
                "entry_name": "kerovi"
            },
            {
                "id": 43040992,
                "event_total": 93,
                "player_name": "Jardar Kristoffer Lunga",
                "rank": 23,
                "last_rank": 49,
                "rank_sort": 23,
                "total": 1902,
                "entry": 231983,
                "entry_name": "FK Pappaperm"
            },
            {
                "id": 43283903,
                "event_total": 59,
                "player_name": "James McDonnell",
                "rank": 24,
                "last_rank": 16,
                "rank_sort": 24,
                "total": 1901,
                "entry": 439829,
                "entry_name": "Dynamo Chicken Kiev"
            },
            {
                "id": 2326445,
                "event_total": 65,
                "player_name": "MZKY BOYD",
                "rank": 25,
                "last_rank": 23,
                "rank_sort": 25,
                "total": 1899,
                "entry": 63366,
                "entry_name": "MZKY"
            },
            {
                "id": 63888500,
                "event_total": 45,
                "player_name": "Will Mizon",
                "rank": 25,
                "last_rank": 12,
                "rank_sort": 26,
                "total": 1899,
                "entry": 259758,
                "entry_name": "yooooo"
            },
            {
                "id": 37754395,
                "event_total": 58,
                "player_name": "Sam Green-Clarke",
                "rank": 27,
                "last_rank": 13,
                "rank_sort": 27,
                "total": 1898,
                "entry": 553739,
                "entry_name": "Soccer"
            },
            {
                "id": 5958056,
                "event_total": 77,
                "player_name": "Dave Paxton",
                "rank": 28,
                "last_rank": 37,
                "rank_sort": 28,
                "total": 1897,
                "entry": 16660,
                "entry_name": "The Vestal Virgils"
            },
            {
                "id": 8462602,
                "event_total": 92,
                "player_name": "Ilya Gurov",
                "rank": 29,
                "last_rank": 67,
                "rank_sort": 29,
                "total": 1895,
                "entry": 940115,
                "entry_name": "BOJIWE6CTBO"
            },
            {
                "id": 64152958,
                "event_total": 72,
                "player_name": "Bir Bdr Rai",
                "rank": 30,
                "last_rank": 32,
                "rank_sort": 30,
                "total": 1894,
                "entry": 166689,
                "entry_name": "bir2020"
            },
            {
                "id": 11549052,
                "event_total": 78,
                "player_name": "Nsisong David.",
                "rank": 31,
                "last_rank": 43,
                "rank_sort": 31,
                "total": 1893,
                "entry": 2037243,
                "entry_name": "WORLD XI"
            },
            {
                "id": 64158121,
                "event_total": 58,
                "player_name": "Kristoffer Jacobsen",
                "rank": 32,
                "last_rank": 21,
                "rank_sort": 32,
                "total": 1893,
                "entry": 158647,
                "entry_name": "Doffy FC"
            },
            {
                "id": 31782793,
                "event_total": 92,
                "player_name": "Bart\u0142omiej Zawadzki",
                "rank": 33,
                "last_rank": 78,
                "rank_sort": 33,
                "total": 1889,
                "entry": 224888,
                "entry_name": "Golems"
            },
            {
                "id": 31772077,
                "event_total": 92,
                "player_name": "Abderahmane souaber",
                "rank": 34,
                "last_rank": 79,
                "rank_sort": 34,
                "total": 1888,
                "entry": 2330335,
                "entry_name": "Inter Ya Nan"
            },
            {
                "id": 7682814,
                "event_total": 56,
                "player_name": "Samuel Kolo",
                "rank": 34,
                "last_rank": 24,
                "rank_sort": 35,
                "total": 1888,
                "entry": 1246696,
                "entry_name": "Master Chief"
            },
            {
                "id": 42937476,
                "event_total": 91,
                "player_name": "Tom Sharp",
                "rank": 36,
                "last_rank": 76,
                "rank_sort": 36,
                "total": 1888,
                "entry": 4627,
                "entry_name": "Tomchester United"
            },
            {
                "id": 32432289,
                "event_total": 83,
                "player_name": "Niklas Busk-Jensen",
                "rank": 37,
                "last_rank": 58,
                "rank_sort": 37,
                "total": 1888,
                "entry": 7576,
                "entry_name": "Urmele Bhoys"
            },
            {
                "id": 42929540,
                "event_total": 94,
                "player_name": "Liam Ball",
                "rank": 38,
                "last_rank": 93,
                "rank_sort": 38,
                "total": 1887,
                "entry": 143297,
                "entry_name": "Neville Wears Prada"
            },
            {
                "id": 42914488,
                "event_total": 74,
                "player_name": "Nathan Lowther",
                "rank": 39,
                "last_rank": 35,
                "rank_sort": 39,
                "total": 1887,
                "entry": 56647,
                "entry_name": "Neil Warnock FC"
            },
            {
                "id": 10061377,
                "event_total": 72,
                "player_name": "@FPL_Ederson31 _",
                "rank": 40,
                "last_rank": 44,
                "rank_sort": 40,
                "total": 1886,
                "entry": 1147507,
                "entry_name": "@FPL_Ederson31"
            },
            {
                "id": 47442072,
                "event_total": 67,
                "player_name": "Faris Numic",
                "rank": 41,
                "last_rank": 28,
                "rank_sort": 41,
                "total": 1886,
                "entry": 1591871,
                "entry_name": "Karne"
            },
            {
                "id": 48679180,
                "event_total": 60,
                "player_name": "Predrag Premovic",
                "rank": 42,
                "last_rank": 27,
                "rank_sort": 42,
                "total": 1885,
                "entry": 216513,
                "entry_name": "NoReverseGearRashid"
            },
            {
                "id": 7370761,
                "event_total": 80,
                "player_name": "Anton Geier",
                "rank": 43,
                "last_rank": 61,
                "rank_sort": 43,
                "total": 1884,
                "entry": 9414,
                "entry_name": "The A.Wengers"
            },
            {
                "id": 30563742,
                "event_total": 88,
                "player_name": "Bryan Laksana",
                "rank": 44,
                "last_rank": 83,
                "rank_sort": 44,
                "total": 1884,
                "entry": 9348,
                "entry_name": "Under The Radar"
            },
            {
                "id": 64226039,
                "event_total": 61,
                "player_name": "Michael Huppe",
                "rank": 45,
                "last_rank": 0,
                "rank_sort": 45,
                "total": 1884,
                "entry": 1504981,
                "entry_name": "Ralf's Riff Raff"
            },
            {
                "id": 620848,
                "event_total": 71,
                "player_name": "Nicholas Khor",
                "rank": 46,
                "last_rank": 50,
                "rank_sort": 46,
                "total": 1883,
                "entry": 4255,
                "entry_name": "losing my reguil\u00f3n"
            },
            {
                "id": 2426479,
                "event_total": 97,
                "player_name": "Mandip Kafle",
                "rank": 47,
                "last_rank": 91,
                "rank_sort": 47,
                "total": 1883,
                "entry": 318614,
                "entry_name": "The Agony & the xGc"
            },
            {
                "id": 11574196,
                "event_total": 73,
                "player_name": "Mehboob Rawoot",
                "rank": 48,
                "last_rank": 48,
                "rank_sort": 48,
                "total": 1882,
                "entry": 41260,
                "entry_name": "The J\u00fcrgenauts"
            },
            {
                "id": 13932382,
                "event_total": 76,
                "player_name": "Hugo Karlsson",
                "rank": 49,
                "last_rank": 55,
                "rank_sort": 49,
                "total": 1882,
                "entry": 1011072,
                "entry_name": "Chilla Lide FC"
            },
            {
                "id": 33137429,
                "event_total": 45,
                "player_name": "Amar Ahmed",
                "rank": 50,
                "last_rank": 18,
                "rank_sort": 50,
                "total": 1881,
                "entry": 2126,
                "entry_name": "Gods of the Arena"
            }
        ]
    }
}