{
    "new_entries": {
        "has_next": false,
        "page": 1,
        "results": []
    },
    "last_updated_data": "2022-04-08T22:45:55Z",
    "league": {
        "id": 276,
        "name": "Gameweek 1",
        "created": "2021-06-22T10:37:38.853542Z",
        "closed": false,
        "max_entries": null,
        "league_type": "s",
        "scoring": "c",
        "admin_entry": null,
        "start_event": 1,
        "code_privacy": "p",
        "has_cup": false,
        "cup_league": null,
        "rank": null,
        "lgCount": 6517550
    },
    "standings": {
        "has_next": true,
        "page": 1,
        "results": [
            {
                "id": 402597,
                "event_total": 16,
                "player_name": "Joacim Lengroth",
                "rank": 1,
                "last_rank": 3,
                "rank_sort": 1,
                "total": 2284,
                "entry": 77967,
                "entry_name": "Artisterna"
            },
            {
                "id": 520,
                "event_total": 0,
                "player_name": "H\u00e5kon Mangersnes",
                "rank": 2,
                "last_rank": 1,
                "rank_sort": 2,
                "total": 2273,
                "entry": 131,
                "entry_name": "Excel XI"
            },
            {
                "id": 1340872,
                "event_total": 8,
                "player_name": "Johan Larsson",
                "rank": 3,
                "last_rank": 5,
                "rank_sort": 3,
                "total": 2271,
                "entry": 252965,
                "entry_name": "Barnarp Strippers"
            },
            {
                "id": 17249817,
                "event_total": 0,
                "player_name": "Anders Dugstad",
                "rank": 4,
                "last_rank": 2,
                "rank_sort": 4,
                "total": 2269,
                "entry": 2903808,
                "entry_name": "Oles Brummser"
            },
            {
                "id": 31141671,
                "event_total": 5,
                "player_name": "Joshua Meszar",
                "rank": 5,
                "last_rank": 6,
                "rank_sort": 5,
                "total": 2265,
                "entry": 4634245,
                "entry_name": "Mighty Moose"
            },
            {
                "id": 9729358,
                "event_total": 0,
                "player_name": "Alex Abel",
                "rank": 6,
                "last_rank": 4,
                "rank_sort": 6,
                "total": 2264,
                "entry": 1750591,
                "entry_name": "westhamabel"
            },
            {
                "id": 5951094,
                "event_total": 7,
                "player_name": "James kelly",
                "rank": 7,
                "last_rank": 12,
                "rank_sort": 7,
                "total": 2262,
                "entry": 1108174,
                "entry_name": "Marley FC"
            },
            {
                "id": 5790136,
                "event_total": 3,
                "player_name": "Christopher Post",
                "rank": 8,
                "last_rank": 7,
                "rank_sort": 8,
                "total": 2262,
                "entry": 1080063,
                "entry_name": "Hotel? Thiago"
            },
            {
                "id": 4555634,
                "event_total": 0,
                "player_name": "Vladimir Pleskic",
                "rank": 9,
                "last_rank": 8,
                "rank_sort": 9,
                "total": 2258,
                "entry": 854921,
                "entry_name": "Chupotero"
            },
            {
                "id": 3152762,
                "event_total": 16,
                "player_name": "Steven Eales",
                "rank": 10,
                "last_rank": 28,
                "rank_sort": 10,
                "total": 2258,
                "entry": 595223,
                "entry_name": "Django\u2019s Riff"
            },
            {
                "id": 4675625,
                "event_total": 0,
                "player_name": "Hendrik Mattsson",
                "rank": 11,
                "last_rank": 9,
                "rank_sort": 11,
                "total": 2257,
                "entry": 877419,
                "entry_name": "Lanista Primus"
            },
            {
                "id": 5918937,
                "event_total": 0,
                "player_name": "Olle Hultqvist",
                "rank": 12,
                "last_rank": 10,
                "rank_sort": 12,
                "total": 2256,
                "entry": 1102284,
                "entry_name": "FC Uffe L\u00f6ken"
            },
            {
                "id": 6216937,
                "event_total": 9,
                "player_name": "Dan Sharples",
                "rank": 12,
                "last_rank": 19,
                "rank_sort": 13,
                "total": 2256,
                "entry": 1154608,
                "entry_name": "Mallorca Town FC"
            },
            {
                "id": 1872402,
                "event_total": 2,
                "player_name": "Tiago Matos",
                "rank": 14,
                "last_rank": 13,
                "rank_sort": 14,
                "total": 2255,
                "entry": 352612,
                "entry_name": "Amora FC"
            },
            {
                "id": 181041,
                "event_total": 5,
                "player_name": "Pranto Protim Paul",
                "rank": 15,
                "last_rank": 17,
                "rank_sort": 15,
                "total": 2253,
                "entry": 35434,
                "entry_name": "Captain Blank XI"
            },
            {
                "id": 51148,
                "event_total": 0,
                "player_name": "Srecko Kurtovic",
                "rank": 16,
                "last_rank": 11,
                "rank_sort": 16,
                "total": 2252,
                "entry": 10397,
                "entry_name": "Forza Vele\u017e"
            },
            {
                "id": 849191,
                "event_total": 7,
                "player_name": "Bj\u00f8rn Helge S\u00f8vde",
                "rank": 17,
                "last_rank": 23,
                "rank_sort": 17,
                "total": 2251,
                "entry": 163106,
                "entry_name": "Underdogs"
            },
            {
                "id": 607097,
                "event_total": 3,
                "player_name": "Ben Ruffles",
                "rank": 18,
                "last_rank": 16,
                "rank_sort": 18,
                "total": 2251,
                "entry": 116527,
                "entry_name": "@Mad4FPL"
            },
            {
                "id": 10334,
                "event_total": 9,
                "player_name": "Obay Eid",
                "rank": 19,
                "last_rank": 34,
                "rank_sort": 19,
                "total": 2249,
                "entry": 2420,
                "entry_name": "{FPL_Milanista}"
            },
            {
                "id": 3593786,
                "event_total": 0,
                "player_name": "James Angelopoulos",
                "rank": 20,
                "last_rank": 14,
                "rank_sort": 20,
                "total": 2249,
                "entry": 676352,
                "entry_name": "Change Name"
            },
            {
                "id": 22605431,
                "event_total": 0,
                "player_name": "Ole Knutsen",
                "rank": 21,
                "last_rank": 15,
                "rank_sort": 21,
                "total": 2248,
                "entry": 3509874,
                "entry_name": "XIXI"
            },
            {
                "id": 230526,
                "event_total": 0,
                "player_name": "Ahmed Ayub",
                "rank": 22,
                "last_rank": 18,
                "rank_sort": 22,
                "total": 2248,
                "entry": 44897,
                "entry_name": "Gemz"
            },
            {
                "id": 369073,
                "event_total": 0,
                "player_name": "Tor Ulvin",
                "rank": 23,
                "last_rank": 21,
                "rank_sort": 23,
                "total": 2246,
                "entry": 71665,
                "entry_name": "Nossum Billionaires"
            },
            {
                "id": 192384,
                "event_total": 0,
                "player_name": "Cristian-Anton Fi\u021b\u0103",
                "rank": 24,
                "last_rank": 22,
                "rank_sort": 24,
                "total": 2245,
                "entry": 37470,
                "entry_name": "Taurii Asasini"
            },
            {
                "id": 464461,
                "event_total": 3,
                "player_name": "\u0141ukasz Komorowski",
                "rank": 25,
                "last_rank": 29,
                "rank_sort": 25,
                "total": 2244,
                "entry": 89292,
                "entry_name": "AndSolskjaerHasWonIt"
            },
            {
                "id": 339280,
                "event_total": 0,
                "player_name": "Marko Vilotic",
                "rank": 26,
                "last_rank": 24,
                "rank_sort": 26,
                "total": 2243,
                "entry": 65915,
                "entry_name": "Big Sem\u010dina"
            },
            {
                "id": 3548325,
                "event_total": 0,
                "player_name": "Sebasti\u00e3o Faria",
                "rank": 26,
                "last_rank": 24,
                "rank_sort": 27,
                "total": 2243,
                "entry": 667853,
                "entry_name": "Lord Puccini"
            },
            {
                "id": 1096389,
                "event_total": 0,
                "player_name": "Bino Baby",
                "rank": 28,
                "last_rank": 20,
                "rank_sort": 28,
                "total": 2243,
                "entry": 207377,
                "entry_name": "Tai Lung"
            },
            {
                "id": 26907820,
                "event_total": 3,
                "player_name": "Filemon Dettori",
                "rank": 29,
                "last_rank": 35,
                "rank_sort": 29,
                "total": 2243,
                "entry": 4077661,
                "entry_name": "de Bruyne suiker"
            },
            {
                "id": 1336365,
                "event_total": 0,
                "player_name": "Nabil Halik",
                "rank": 30,
                "last_rank": 26,
                "rank_sort": 30,
                "total": 2242,
                "entry": 252064,
                "entry_name": "Not here Toulouse"
            },
            {
                "id": 1492417,
                "event_total": 7,
                "player_name": "Joe Sherman",
                "rank": 31,
                "last_rank": 40,
                "rank_sort": 31,
                "total": 2242,
                "entry": 282146,
                "entry_name": "The Sherminators"
            },
            {
                "id": 39764932,
                "event_total": 0,
                "player_name": "Sebastian Ogrodowicz",
                "rank": 32,
                "last_rank": 27,
                "rank_sort": 32,
                "total": 2242,
                "entry": 5718159,
                "entry_name": "The Citizens"
            },
            {
                "id": 30404201,
                "event_total": 0,
                "player_name": "Jeffrey Kingington",
                "rank": 33,
                "last_rank": 29,
                "rank_sort": 33,
                "total": 2241,
                "entry": 4537756,
                "entry_name": "JPD"
            },
            {
                "id": 2331137,
                "event_total": 0,
                "player_name": "Johan Jansson",
                "rank": 34,
                "last_rank": 31,
                "rank_sort": 34,
                "total": 2241,
                "entry": 437680,
                "entry_name": "JanneJr"
            },
            {
                "id": 639509,
                "event_total": 0,
                "player_name": "Jon Corke",
                "rank": 35,
                "last_rank": 33,
                "rank_sort": 35,
                "total": 2240,
                "entry": 122675,
                "entry_name": "\u2018Insert pun here\u2019 FC"
            },
            {
                "id": 93030,
                "event_total": 3,
                "player_name": "Nikos Papagiannopoulos",
                "rank": 35,
                "last_rank": 38,
                "rank_sort": 36,
                "total": 2240,
                "entry": 18338,
                "entry_name": "\u0395\u03c0\u03b9\u03c3\u03c4\u03ae\u03bc\u03c9\u03bd"
            },
            {
                "id": 2546335,
                "event_total": 3,
                "player_name": "Ivan Zirdum",
                "rank": 37,
                "last_rank": 39,
                "rank_sort": 37,
                "total": 2239,
                "entry": 479678,
                "entry_name": "Zikaci"
            },
            {
                "id": 1579485,
                "event_total": 7,
                "player_name": "Troy Hope",
                "rank": 38,
                "last_rank": 49,
                "rank_sort": 38,
                "total": 2238,
                "entry": 298337,
                "entry_name": "Lucky Prophet"
            },
            {
                "id": 212401,
                "event_total": 0,
                "player_name": "ha fiz",
                "rank": 39,
                "last_rank": 36,
                "rank_sort": 39,
                "total": 2238,
                "entry": 41410,
                "entry_name": "BABA YAGA"
            },
            {
                "id": 1244712,
                "event_total": 0,
                "player_name": "Alex Rapala",
                "rank": 40,
                "last_rank": 37,
                "rank_sort": 40,
                "total": 2238,
                "entry": 234586,
                "entry_name": "Gangster's Allardyce"
            },
            {
                "id": 50673,
                "event_total": 3,
                "player_name": "Tess Oklin",
                "rank": 41,
                "last_rank": 42,
                "rank_sort": 41,
                "total": 2238,
                "entry": 10322,
                "entry_name": "Mj\u00e6r & K\u00e6hle FC"
            },
            {
                "id": 646921,
                "event_total": 0,
                "player_name": "Noah \u00c5berg",
                "rank": 42,
                "last_rank": 32,
                "rank_sort": 42,
                "total": 2237,
                "entry": 123863,
                "entry_name": "Flunkyguys"
            },
            {
                "id": 33958,
                "event_total": 5,
                "player_name": "Reuben Jeeva",
                "rank": 43,
                "last_rank": 50,
                "rank_sort": 43,
                "total": 2236,
                "entry": 7254,
                "entry_name": "Reuben Kazan FC"
            },
            {
                "id": 23681361,
                "event_total": 8,
                "player_name": "Ahmed El Araby",
                "rank": 44,
                "last_rank": 59,
                "rank_sort": 44,
                "total": 2236,
                "entry": 3652721,
                "entry_name": "Boka Dream Team"
            },
            {
                "id": 23553599,
                "event_total": 0,
                "player_name": "Kristoffer Salin",
                "rank": 45,
                "last_rank": 41,
                "rank_sort": 45,
                "total": 2235,
                "entry": 3635109,
                "entry_name": "Samba salle fc"
            },
            {
                "id": 54563,
                "event_total": 5,
                "player_name": "Daniel Marston",
                "rank": 46,
                "last_rank": 56,
                "rank_sort": 46,
                "total": 2235,
                "entry": 10970,
                "entry_name": "Marston's Marvels"
            },
            {
                "id": 425176,
                "event_total": 7,
                "player_name": "Niall O'Connor",
                "rank": 47,
                "last_rank": 62,
                "rank_sort": 47,
                "total": 2234,
                "entry": 81877,
                "entry_name": "Leatherygents"
            },
            {
                "id": 11114760,
                "event_total": 0,
                "player_name": "Will Slobom",
                "rank": 48,
                "last_rank": 43,
                "rank_sort": 48,
                "total": 2234,
                "entry": 1974199,
                "entry_name": "Guns 'n' Moses"
            },
            {
                "id": 14384,
                "event_total": 1,
                "player_name": "Louis Karten-Ceccarelli",
                "rank": 49,
                "last_rank": 46,
                "rank_sort": 49,
                "total": 2234,
                "entry": 3226,
                "entry_name": "False Image FC"
            },
            {
                "id": 1300307,
                "event_total": 0,
                "player_name": "Joakim Winter",
                "rank": 50,
                "last_rank": 44,
                "rank_sort": 50,
                "total": 2233,
                "entry": 245112,
                "entry_name": "Silverfang FC"
            }
        ]
    }
}