{
    "new_entries": {
        "has_next": false,
        "page": 1,
        "results": []
    },
    "last_updated_data": "2022-08-05T22:09:33Z",
    "league": {
        "id": 314,
        "name": "Overall",
        "created": "2022-07-05T09:52:00.763442Z",
        "closed": false,
        "max_entries": null,
        "league_type": "s",
        "scoring": "c",
        "admin_entry": null,
        "start_event": 1,
        "code_privacy": "p",
        "has_cup": true,
        "cup_league": null,
        "rank": null,
        "lgCount": 9059100
    },
    "standings": {
        "has_next": true,
        "page": 1,
        "results": [
            {
                "id": 52420892,
                "event_total": 56,
                "player_name": "vidar Kjellsson",
                "rank": 1,
                "last_rank": 0,
                "rank_sort": 1,
                "total": 56,
                "entry": 7232118,
                "entry_name": "Vidarkjellssongandol"
            },
            {
                "id": 24115356,
                "event_total": 52,
                "player_name": "Linus Lanneborn",
                "rank": 2,
                "last_rank": 0,
                "rank_sort": 2,
                "total": 52,
                "entry": 3977629,
                "entry_name": "Lasses Lall"
            },
            {
                "id": 42785078,
                "event_total": 50,
                "player_name": "\u0627\u0644\u0631\u064a\u0633 \u0628\u0644\u062d\u0629 \u0635\u0627\u062d\u0628 \u0645\u0632\u0631\u0639\u0629 \u0627\u0644\u0641\u0631\u0627\u062e",
                "rank": 3,
                "last_rank": 0,
                "rank_sort": 3,
                "total": 50,
                "entry": 6067174,
                "entry_name": "\u0623\u0646\u0627 \u0645\u0634 \u0642\u0627\u062f\u0631 \u0623\u062f\u064a\u0643"
            },
            {
                "id": 3987048,
                "event_total": 50,
                "player_name": "Samuel Fairclough",
                "rank": 3,
                "last_rank": 0,
                "rank_sort": 4,
                "total": 50,
                "entry": 767451,
                "entry_name": "Net 6 & Chill"
            },
            {
                "id": 4964881,
                "event_total": 50,
                "player_name": "greg tai LE402 SJI",
                "rank": 3,
                "last_rank": 0,
                "rank_sort": 5,
                "total": 50,
                "entry": 949950,
                "entry_name": "gregory tai wen hao"
            },
            {
                "id": 49458364,
                "event_total": 50,
                "player_name": "EL BACHIRI ABDESSADEK 0600502500",
                "rank": 3,
                "last_rank": 0,
                "rank_sort": 6,
                "total": 50,
                "entry": 6884454,
                "entry_name": "Pending Moderation"
            },
            {
                "id": 34392632,
                "event_total": 49,
                "player_name": "Shea Joffe",
                "rank": 7,
                "last_rank": 0,
                "rank_sort": 7,
                "total": 49,
                "entry": 5263502,
                "entry_name": "Shea"
            },
            {
                "id": 52399327,
                "event_total": 49,
                "player_name": "rebin mahmood",
                "rank": 7,
                "last_rank": 0,
                "rank_sort": 8,
                "total": 49,
                "entry": 7229628,
                "entry_name": "Kurdesh team"
            },
            {
                "id": 52423558,
                "event_total": 49,
                "player_name": "Arnie Moth",
                "rank": 7,
                "last_rank": 0,
                "rank_sort": 9,
                "total": 49,
                "entry": 7232447,
                "entry_name": "Let\u2019s get Messi"
            },
            {
                "id": 53696128,
                "event_total": 49,
                "player_name": "callum green",
                "rank": 7,
                "last_rank": 0,
                "rank_sort": 10,
                "total": 49,
                "entry": 7381334,
                "entry_name": "Tooooonnneeee"
            },
            {
                "id": 55036818,
                "event_total": 49,
                "player_name": "Dylan Westnott",
                "rank": 7,
                "last_rank": 0,
                "rank_sort": 11,
                "total": 49,
                "entry": 7541048,
                "entry_name": "Alan"
            },
            {
                "id": 55733942,
                "event_total": 49,
                "player_name": "Simon Sj\u00f6lund",
                "rank": 7,
                "last_rank": 0,
                "rank_sort": 12,
                "total": 49,
                "entry": 7625777,
                "entry_name": "Simon S 1 in world"
            },
            {
                "id": 56911022,
                "event_total": 49,
                "player_name": "Andrew Richardson",
                "rank": 7,
                "last_rank": 0,
                "rank_sort": 13,
                "total": 49,
                "entry": 7765425,
                "entry_name": "Son and son"
            },
            {
                "id": 56948368,
                "event_total": 49,
                "player_name": "Thom Pichon",
                "rank": 7,
                "last_rank": 0,
                "rank_sort": 14,
                "total": 49,
                "entry": 7769794,
                "entry_name": "insta/uniofbants"
            },
            {
                "id": 21577637,
                "event_total": 49,
                "player_name": "Lufuno Mushabalo",
                "rank": 7,
                "last_rank": 0,
                "rank_sort": 15,
                "total": 49,
                "entry": 3606136,
                "entry_name": "BADCOMPANY226"
            },
            {
                "id": 30331205,
                "event_total": 49,
                "player_name": "greg tai 17",
                "rank": 7,
                "last_rank": 0,
                "rank_sort": 16,
                "total": 49,
                "entry": 4750553,
                "entry_name": "greg tai 18"
            },
            {
                "id": 47096221,
                "event_total": 49,
                "player_name": "Vidar Kjellsson",
                "rank": 7,
                "last_rank": 0,
                "rank_sort": 17,
                "total": 49,
                "entry": 6599460,
                "entry_name": "Vidarkjellsson96"
            },
            {
                "id": 29836713,
                "event_total": 49,
                "player_name": "no goals",
                "rank": 7,
                "last_rank": 0,
                "rank_sort": 18,
                "total": 49,
                "entry": 4680818,
                "entry_name": "no goals fc"
            },
            {
                "id": 57055379,
                "event_total": 48,
                "player_name": "Luke Cooper",
                "rank": 19,
                "last_rank": 0,
                "rank_sort": 19,
                "total": 48,
                "entry": 7782297,
                "entry_name": "Fheurnfjqocndugnw bc"
            },
            {
                "id": 36139522,
                "event_total": 47,
                "player_name": "Taylor Hall",
                "rank": 20,
                "last_rank": 0,
                "rank_sort": 20,
                "total": 47,
                "entry": 5423708,
                "entry_name": "1 in world"
            },
            {
                "id": 50089175,
                "event_total": 47,
                "player_name": "Darlington Odia",
                "rank": 20,
                "last_rank": 0,
                "rank_sort": 21,
                "total": 47,
                "entry": 6957583,
                "entry_name": "TheDaggeeDooms"
            },
            {
                "id": 7257732,
                "event_total": 46,
                "player_name": "Alfie Wickens",
                "rank": 22,
                "last_rank": 0,
                "rank_sort": 22,
                "total": 46,
                "entry": 1367033,
                "entry_name": "y"
            },
            {
                "id": 9393333,
                "event_total": 46,
                "player_name": "Ciaran Kiely",
                "rank": 22,
                "last_rank": 0,
                "rank_sort": 23,
                "total": 46,
                "entry": 1749745,
                "entry_name": "Antonio\u2019s Areolas"
            },
            {
                "id": 27033103,
                "event_total": 46,
                "player_name": "Helen Zeqaj",
                "rank": 22,
                "last_rank": 0,
                "rank_sort": 24,
                "total": 46,
                "entry": 4354768,
                "entry_name": "CHIEF FC"
            },
            {
                "id": 42482681,
                "event_total": 46,
                "player_name": "Geo Harioseno",
                "rank": 22,
                "last_rank": 0,
                "rank_sort": 25,
                "total": 46,
                "entry": 6032402,
                "entry_name": "SCP"
            },
            {
                "id": 52537370,
                "event_total": 46,
                "player_name": "Ayomide Felix",
                "rank": 22,
                "last_rank": 0,
                "rank_sort": 26,
                "total": 46,
                "entry": 7245995,
                "entry_name": "Az"
            },
            {
                "id": 46393074,
                "event_total": 45,
                "player_name": "Chris Cooper",
                "rank": 27,
                "last_rank": 0,
                "rank_sort": 27,
                "total": 45,
                "entry": 6511143,
                "entry_name": "Cooper Troopers"
            },
            {
                "id": 30308381,
                "event_total": 45,
                "player_name": "greg tai 11",
                "rank": 27,
                "last_rank": 0,
                "rank_sort": 28,
                "total": 45,
                "entry": 4747354,
                "entry_name": "greg tai 11"
            },
            {
                "id": 30569808,
                "event_total": 45,
                "player_name": "Virgil Benakis",
                "rank": 27,
                "last_rank": 0,
                "rank_sort": 29,
                "total": 45,
                "entry": 4780627,
                "entry_name": "Fulham fc"
            },
            {
                "id": 40400802,
                "event_total": 45,
                "player_name": "hamza jaber",
                "rank": 27,
                "last_rank": 0,
                "rank_sort": 30,
                "total": 45,
                "entry": 5819600,
                "entry_name": "hamza"
            },
            {
                "id": 50423748,
                "event_total": 45,
                "player_name": "Glen Tappel",
                "rank": 27,
                "last_rank": 0,
                "rank_sort": 31,
                "total": 45,
                "entry": 6997078,
                "entry_name": "Glensters"
            },
            {
                "id": 57233467,
                "event_total": 45,
                "player_name": "Muhammad Adnan",
                "rank": 27,
                "last_rank": 0,
                "rank_sort": 32,
                "total": 45,
                "entry": 7803971,
                "entry_name": "GujjarsXI"
            },
            {
                "id": 6705903,
                "event_total": 44,
                "player_name": "Jacob Spencer",
                "rank": 33,
                "last_rank": 0,
                "rank_sort": 33,
                "total": 44,
                "entry": 1266778,
                "entry_name": "@JakeOSpencer"
            },
            {
                "id": 31925442,
                "event_total": 44,
                "player_name": "chris jones",
                "rank": 33,
                "last_rank": 0,
                "rank_sort": 34,
                "total": 44,
                "entry": 4955500,
                "entry_name": "Klopps and robbers"
            },
            {
                "id": 28888888,
                "event_total": 44,
                "player_name": "Harry Warner",
                "rank": 33,
                "last_rank": 0,
                "rank_sort": 35,
                "total": 44,
                "entry": 4545433,
                "entry_name": "Warnerball"
            },
            {
                "id": 51546831,
                "event_total": 44,
                "player_name": "Jesam Ottoh",
                "rank": 33,
                "last_rank": 0,
                "rank_sort": 36,
                "total": 44,
                "entry": 7129324,
                "entry_name": "Dorchester United"
            },
            {
                "id": 922305,
                "event_total": 44,
                "player_name": "Jamie Kent",
                "rank": 33,
                "last_rank": 0,
                "rank_sort": 37,
                "total": 44,
                "entry": 177446,
                "entry_name": "Wookie Athletic"
            },
            {
                "id": 7836334,
                "event_total": 44,
                "player_name": "Che Rigby",
                "rank": 33,
                "last_rank": 0,
                "rank_sort": 38,
                "total": 44,
                "entry": 1474182,
                "entry_name": "che"
            },
            {
                "id": 10669047,
                "event_total": 44,
                "player_name": "Iwo Blicharski",
                "rank": 33,
                "last_rank": 0,
                "rank_sort": 39,
                "total": 44,
                "entry": 1966578,
                "entry_name": "Dertons"
            },
            {
                "id": 12583623,
                "event_total": 44,
                "player_name": "\u0643\u0648\u062a\u0634 \u0639\u0627\u062f\u0644 \ud83c\uddf8\ud83c\udde6\ud83e\udd47",
                "rank": 33,
                "last_rank": 0,
                "rank_sort": 40,
                "total": 44,
                "entry": 2282756,
                "entry_name": "\u0639\u0627\u062f\u0644 \u0627\u0644\u0634\u0631\u0627\u0631\u064a \ufffd"
            },
            {
                "id": 20832518,
                "event_total": 44,
                "player_name": "Mike Willis",
                "rank": 33,
                "last_rank": 0,
                "rank_sort": 41,
                "total": 44,
                "entry": 3497587,
                "entry_name": "purple Reina"
            },
            {
                "id": 21437461,
                "event_total": 44,
                "player_name": "Oleksandr Alexander",
                "rank": 33,
                "last_rank": 0,
                "rank_sort": 42,
                "total": 44,
                "entry": 3585288,
                "entry_name": "Arsenal"
            },
            {
                "id": 21987701,
                "event_total": 44,
                "player_name": "Andrea makati Makati",
                "rank": 33,
                "last_rank": 0,
                "rank_sort": 43,
                "total": 44,
                "entry": 3668979,
                "entry_name": "Team player"
            },
            {
                "id": 23162629,
                "event_total": 44,
                "player_name": "Carys Edwards",
                "rank": 33,
                "last_rank": 0,
                "rank_sort": 44,
                "total": 44,
                "entry": 3842388,
                "entry_name": "Stranger Mings"
            },
            {
                "id": 23549639,
                "event_total": 44,
                "player_name": "Jonathan Buchan",
                "rank": 33,
                "last_rank": 0,
                "rank_sort": 45,
                "total": 44,
                "entry": 3897422,
                "entry_name": "JBFC"
            },
            {
                "id": 25594704,
                "event_total": 44,
                "player_name": "Jonny Williams",
                "rank": 33,
                "last_rank": 0,
                "rank_sort": 46,
                "total": 44,
                "entry": 4189454,
                "entry_name": "Haven\u2019t jota clue"
            },
            {
                "id": 26553224,
                "event_total": 44,
                "player_name": "Jessica Cassidy",
                "rank": 33,
                "last_rank": 0,
                "rank_sort": 47,
                "total": 44,
                "entry": 4304856,
                "entry_name": "Jess"
            },
            {
                "id": 29630354,
                "event_total": 44,
                "player_name": "Mohamud Hassan",
                "rank": 33,
                "last_rank": 0,
                "rank_sort": 48,
                "total": 44,
                "entry": 4650704,
                "entry_name": "Pack Season"
            },
            {
                "id": 29883424,
                "event_total": 44,
                "player_name": "jayden reilly",
                "rank": 33,
                "last_rank": 0,
                "rank_sort": 49,
                "total": 44,
                "entry": 4687403,
                "entry_name": "JimmySavile's XI"
            },
            {
                "id": 30904859,
                "event_total": 44,
                "player_name": "Ebeatu Charles",
                "rank": 33,
                "last_rank": 0,
                "rank_sort": 50,
                "total": 44,
                "entry": 4822338,
                "entry_name": "Shady Fc"
            }
        ]
    }
}