{
    "new_entries": {
        "has_next": false,
        "page": 1,
        "results": [
            {
                "entry": 9032087,
                "entry_name": "Recreativo",
                "joined_time": "2022-03-06T16:45:40.697294Z",
                "player_first_name": "Mike",
                "player_last_name": "Dinganga"
            },
            {
                "entry": 9028452,
                "entry_name": "Desmond national",
                "joined_time": "2022-03-05T16:08:54.141050Z",
                "player_first_name": "Desmond",
                "player_last_name": "Ikenna"
            }
        ]
    },
    "last_updated_data": "2022-03-07T23:42:08Z",
    "league": {
        "id": 344,
        "name": "The Official #FPLPod",
        "created": "2021-06-22T11:12:38.355411Z",
        "closed": false,
        "max_entries": null,
        "league_type": "x",
        "scoring": "c",
        "admin_entry": 103,
        "start_event": 1,
        "code_privacy": "p",
        "has_cup": true,
        "cup_league": 2430255,
        "rank": null,
        "lgCount": 43750
    },
    "standings": {
        "has_next": true,
        "page": 1,
        "results": [
            {
                "id": 6957,
                "event_total": 70,
                "player_name": "Tor Even Pettersen",
                "rank": 1,
                "last_rank": 2,
                "rank_sort": 1,
                "total": 1980,
                "entry": 258,
                "entry_name": "Money Mase"
            },
            {
                "id": 55906089,
                "event_total": 83,
                "player_name": "James Neill",
                "rank": 2,
                "last_rank": 3,
                "rank_sort": 2,
                "total": 1979,
                "entry": 76395,
                "entry_name": "Bayern Bru"
            },
            {
                "id": 38175,
                "event_total": 56,
                "player_name": "Mohamed Abdou",
                "rank": 3,
                "last_rank": 1,
                "rank_sort": 3,
                "total": 1972,
                "entry": 7997,
                "entry_name": "NIL SATIS NISI OPTIM"
            },
            {
                "id": 16368,
                "event_total": 82,
                "player_name": "Glen Adams",
                "rank": 4,
                "last_rank": 8,
                "rank_sort": 4,
                "total": 1965,
                "entry": 3642,
                "entry_name": "The Fellowship"
            },
            {
                "id": 316450,
                "event_total": 87,
                "player_name": "Nelson Ashade",
                "rank": 5,
                "last_rank": 13,
                "rank_sort": 5,
                "total": 1965,
                "entry": 61711,
                "entry_name": "The Winning 11"
            },
            {
                "id": 63998473,
                "event_total": 91,
                "player_name": "David Mc",
                "rank": 6,
                "last_rank": 6,
                "rank_sort": 6,
                "total": 1965,
                "entry": 1169767,
                "entry_name": "SAS(Slater& Shearer)"
            },
            {
                "id": 17374907,
                "event_total": 81,
                "player_name": "Dusan Mihajlovic",
                "rank": 7,
                "last_rank": 10,
                "rank_sort": 7,
                "total": 1964,
                "entry": 2913842,
                "entry_name": "Krv-kosti-ligamenti"
            },
            {
                "id": 7352784,
                "event_total": 85,
                "player_name": "Harrison Moore",
                "rank": 8,
                "last_rank": 11,
                "rank_sort": 8,
                "total": 1960,
                "entry": 1351319,
                "entry_name": "Catfish & the Spurs"
            },
            {
                "id": 10490260,
                "event_total": 69,
                "player_name": "Jonathan Hoar",
                "rank": 9,
                "last_rank": 5,
                "rank_sort": 9,
                "total": 1958,
                "entry": 1874845,
                "entry_name": "Singing in Varane"
            },
            {
                "id": 10214767,
                "event_total": 81,
                "player_name": "Shireesh Khandkar",
                "rank": 10,
                "last_rank": 15,
                "rank_sort": 10,
                "total": 1957,
                "entry": 1830934,
                "entry_name": "Boring Team"
            },
            {
                "id": 63477421,
                "event_total": 93,
                "player_name": "James Cockbain",
                "rank": 11,
                "last_rank": 34,
                "rank_sort": 11,
                "total": 1956,
                "entry": 1775256,
                "entry_name": "Deeney in a Bottle"
            },
            {
                "id": 21066432,
                "event_total": 89,
                "player_name": "Sabit Rakhim",
                "rank": 12,
                "last_rank": 28,
                "rank_sort": 12,
                "total": 1954,
                "entry": 3291259,
                "entry_name": "SR team\u2b06\ufe0f\u26a1\ufe0f"
            },
            {
                "id": 63609739,
                "event_total": 80,
                "player_name": "Kalle Zacharoff",
                "rank": 13,
                "last_rank": 22,
                "rank_sort": 13,
                "total": 1950,
                "entry": 1368499,
                "entry_name": "Bk Barksboys"
            },
            {
                "id": 2169939,
                "event_total": 94,
                "player_name": "Duncan Robinson",
                "rank": 14,
                "last_rank": 44,
                "rank_sort": 14,
                "total": 1950,
                "entry": 406674,
                "entry_name": "Abra Dubravka"
            },
            {
                "id": 373785,
                "event_total": 87,
                "player_name": "\u00c3\u00e4yush Ghimire",
                "rank": 15,
                "last_rank": 32,
                "rank_sort": 15,
                "total": 1947,
                "entry": 72624,
                "entry_name": "Thunder Strike"
            },
            {
                "id": 63471272,
                "event_total": 73,
                "player_name": "Sondre Haug",
                "rank": 16,
                "last_rank": 19,
                "rank_sort": 16,
                "total": 1945,
                "entry": 28944,
                "entry_name": "Soldiers of Sondre"
            },
            {
                "id": 13806861,
                "event_total": 67,
                "player_name": "Nathan Standley",
                "rank": 17,
                "last_rank": 14,
                "rank_sort": 17,
                "total": 1944,
                "entry": 2399453,
                "entry_name": "Wayne's World"
            },
            {
                "id": 7098,
                "event_total": 83,
                "player_name": "Roy Grealish",
                "rank": 18,
                "last_rank": 24,
                "rank_sort": 18,
                "total": 1944,
                "entry": 927,
                "entry_name": "Finding Timo"
            },
            {
                "id": 63517064,
                "event_total": 79,
                "player_name": "Filip Karsberg",
                "rank": 19,
                "last_rank": 35,
                "rank_sort": 19,
                "total": 1942,
                "entry": 63964,
                "entry_name": "Los Filles Hermanos"
            },
            {
                "id": 566895,
                "event_total": 83,
                "player_name": "James Appleyard",
                "rank": 20,
                "last_rank": 27,
                "rank_sort": 20,
                "total": 1941,
                "entry": 108646,
                "entry_name": "Werner Brothers"
            },
            {
                "id": 269814,
                "event_total": 105,
                "player_name": "Odhran Naughton",
                "rank": 21,
                "last_rank": 81,
                "rank_sort": 21,
                "total": 1941,
                "entry": 52629,
                "entry_name": "FC DOOM"
            },
            {
                "id": 21613680,
                "event_total": 50,
                "player_name": "Dunstan Bonnici",
                "rank": 22,
                "last_rank": 4,
                "rank_sort": 22,
                "total": 1940,
                "entry": 1043810,
                "entry_name": "Gangsters Allardyce"
            },
            {
                "id": 1126526,
                "event_total": 89,
                "player_name": "mayank sharma",
                "rank": 23,
                "last_rank": 48,
                "rank_sort": 23,
                "total": 1940,
                "entry": 213163,
                "entry_name": "euceladaus fc"
            },
            {
                "id": 63665245,
                "event_total": 64,
                "player_name": "Neil Simpson",
                "rank": 24,
                "last_rank": 16,
                "rank_sort": 24,
                "total": 1935,
                "entry": 1992661,
                "entry_name": "Ivan Tagoal"
            },
            {
                "id": 1818829,
                "event_total": 89,
                "player_name": "victor skogsman",
                "rank": 25,
                "last_rank": 74,
                "rank_sort": 25,
                "total": 1935,
                "entry": 342611,
                "entry_name": "Lilywhites"
            },
            {
                "id": 324131,
                "event_total": 53,
                "player_name": "Chris Allman",
                "rank": 26,
                "last_rank": 12,
                "rank_sort": 26,
                "total": 1935,
                "entry": 63152,
                "entry_name": "Les Incompetents"
            },
            {
                "id": 23940800,
                "event_total": 86,
                "player_name": "Bjarte Langhelle",
                "rank": 27,
                "last_rank": 64,
                "rank_sort": 27,
                "total": 1935,
                "entry": 641057,
                "entry_name": "Barfaholics"
            },
            {
                "id": 62609933,
                "event_total": 94,
                "player_name": "Joe Berman",
                "rank": 28,
                "last_rank": 79,
                "rank_sort": 28,
                "total": 1934,
                "entry": 4319,
                "entry_name": "Joecurly"
            },
            {
                "id": 25890300,
                "event_total": 90,
                "player_name": "Rahul Kumar",
                "rank": 29,
                "last_rank": 82,
                "rank_sort": 29,
                "total": 1934,
                "entry": 3946430,
                "entry_name": "FreeSoul FC"
            },
            {
                "id": 12610,
                "event_total": 75,
                "player_name": "Francisco Alves",
                "rank": 30,
                "last_rank": 38,
                "rank_sort": 30,
                "total": 1933,
                "entry": 2876,
                "entry_name": "Catujalense FC"
            },
            {
                "id": 14755379,
                "event_total": 97,
                "player_name": "Peter Astbury",
                "rank": 31,
                "last_rank": 110,
                "rank_sort": 31,
                "total": 1932,
                "entry": 2541879,
                "entry_name": "PG Kicks"
            },
            {
                "id": 274812,
                "event_total": 79,
                "player_name": "Lee Trotter",
                "rank": 32,
                "last_rank": 52,
                "rank_sort": 32,
                "total": 1932,
                "entry": 53467,
                "entry_name": "BentekeFriedChicken"
            },
            {
                "id": 12943839,
                "event_total": 81,
                "player_name": "James Miller",
                "rank": 33,
                "last_rank": 60,
                "rank_sort": 33,
                "total": 1931,
                "entry": 2268491,
                "entry_name": "Gunner win da league"
            },
            {
                "id": 127022,
                "event_total": 50,
                "player_name": "Terence Toh",
                "rank": 34,
                "last_rank": 7,
                "rank_sort": 34,
                "total": 1930,
                "entry": 24925,
                "entry_name": "Talentoe"
            },
            {
                "id": 4027290,
                "event_total": 64,
                "player_name": "Owen Male",
                "rank": 35,
                "last_rank": 23,
                "rank_sort": 35,
                "total": 1929,
                "entry": 755990,
                "entry_name": "BoomSakaLaca"
            },
            {
                "id": 10158,
                "event_total": 72,
                "player_name": "Tim Brown",
                "rank": 36,
                "last_rank": 42,
                "rank_sort": 36,
                "total": 1928,
                "entry": 2387,
                "entry_name": "Mohammed Sally-Sue"
            },
            {
                "id": 120052,
                "event_total": 60,
                "player_name": "Harish Narayan",
                "rank": 37,
                "last_rank": 18,
                "rank_sort": 37,
                "total": 1928,
                "entry": 23515,
                "entry_name": "11 Angry Men"
            },
            {
                "id": 205189,
                "event_total": 96,
                "player_name": "Calum Stewart",
                "rank": 38,
                "last_rank": 118,
                "rank_sort": 38,
                "total": 1928,
                "entry": 40030,
                "entry_name": "Del Bhoy Jota"
            },
            {
                "id": 805132,
                "event_total": 49,
                "player_name": "Ollie Stoate",
                "rank": 39,
                "last_rank": 9,
                "rank_sort": 39,
                "total": 1928,
                "entry": 154437,
                "entry_name": "Top Of The League"
            },
            {
                "id": 1174494,
                "event_total": 78,
                "player_name": "Iain Donald",
                "rank": 40,
                "last_rank": 63,
                "rank_sort": 40,
                "total": 1927,
                "entry": 221336,
                "entry_name": "Boca Gingers"
            },
            {
                "id": 40363630,
                "event_total": 59,
                "player_name": "Sani Siddiqui",
                "rank": 41,
                "last_rank": 20,
                "rank_sort": 41,
                "total": 1926,
                "entry": 5776314,
                "entry_name": "Desert Gooners"
            },
            {
                "id": 1149011,
                "event_total": 87,
                "player_name": "Leonard Ho",
                "rank": 42,
                "last_rank": 83,
                "rank_sort": 42,
                "total": 1926,
                "entry": 217488,
                "entry_name": "Money mase"
            },
            {
                "id": 1758263,
                "event_total": 77,
                "player_name": "paul devlin",
                "rank": 43,
                "last_rank": 71,
                "rank_sort": 43,
                "total": 1924,
                "entry": 331080,
                "entry_name": "Adams Holding Mee"
            },
            {
                "id": 2300008,
                "event_total": 75,
                "player_name": "BASIL KHAN",
                "rank": 44,
                "last_rank": 62,
                "rank_sort": 44,
                "total": 1924,
                "entry": 431542,
                "entry_name": "DESTRUCTIVE BEASTS"
            },
            {
                "id": 267110,
                "event_total": 86,
                "player_name": "Yassin Marwan",
                "rank": 45,
                "last_rank": 89,
                "rank_sort": 45,
                "total": 1924,
                "entry": 52067,
                "entry_name": "Step Sissoko"
            },
            {
                "id": 17243,
                "event_total": 105,
                "player_name": "Karl Pilsworth",
                "rank": 46,
                "last_rank": 151,
                "rank_sort": 46,
                "total": 1924,
                "entry": 3818,
                "entry_name": "Red mist fc"
            },
            {
                "id": 62312416,
                "event_total": 78,
                "player_name": "Dave Hughes",
                "rank": 47,
                "last_rank": 77,
                "rank_sort": 47,
                "total": 1923,
                "entry": 42740,
                "entry_name": "The Ferocious Heat"
            },
            {
                "id": 73875,
                "event_total": 75,
                "player_name": "Sam Godfrey",
                "rank": 48,
                "last_rank": 69,
                "rank_sort": 48,
                "total": 1923,
                "entry": 14605,
                "entry_name": "OUFC"
            },
            {
                "id": 374886,
                "event_total": 57,
                "player_name": "Patricia Hart",
                "rank": 49,
                "last_rank": 17,
                "rank_sort": 49,
                "total": 1923,
                "entry": 72850,
                "entry_name": "Hart's Heroes"
            },
            {
                "id": 238843,
                "event_total": 64,
                "player_name": "Dave Round",
                "rank": 50,
                "last_rank": 37,
                "rank_sort": 50,
                "total": 1922,
                "entry": 46533,
                "entry_name": "Warwick Baggies"
            }
        ]
    }
}