{
    "new_entries": {
        "has_next": false,
        "page": 1,
        "results": [
            {
                "entry": 9036311,
                "entry_name": "Diamond fc",
                "joined_time": "2022-03-08T09:18:34.532441Z",
                "player_first_name": "hack",
                "player_last_name": "fundz"
            }
        ]
    },
    "last_updated_data": "2022-03-07T23:42:08Z",
    "league": {
        "id": 68048,
        "name": "Fantasy Football Scout",
        "created": "2021-06-23T16:45:17.628385Z",
        "closed": false,
        "max_entries": null,
        "league_type": "x",
        "scoring": "c",
        "admin_entry": 311539,
        "start_event": 1,
        "code_privacy": "p",
        "has_cup": true,
        "cup_league": 2430261,
        "rank": null,
        "lgCount": 50500
    },
    "standings": {
        "has_next": true,
        "page": 1,
        "results": [
            {
                "id": 1987505,
                "event_total": 100,
                "player_name": "Partha Dey",
                "rank": 1,
                "last_rank": 12,
                "rank_sort": 1,
                "total": 2002,
                "entry": 309378,
                "entry_name": "Nandi\u2019s Band"
            },
            {
                "id": 1967026,
                "event_total": 99,
                "player_name": "Obay Eid",
                "rank": 2,
                "last_rank": 17,
                "rank_sort": 2,
                "total": 1996,
                "entry": 2420,
                "entry_name": "{FPL_Milanista}"
            },
            {
                "id": 1977197,
                "event_total": 60,
                "player_name": "Srecko Kurtovic",
                "rank": 3,
                "last_rank": 1,
                "rank_sort": 3,
                "total": 1995,
                "entry": 10397,
                "entry_name": "Forza Vele\u017e"
            },
            {
                "id": 1975592,
                "event_total": 86,
                "player_name": "Christian Westgaard",
                "rank": 4,
                "last_rank": 9,
                "rank_sort": 4,
                "total": 1994,
                "entry": 2224,
                "entry_name": "Beekm\u00f8rkt"
            },
            {
                "id": 13790239,
                "event_total": 92,
                "player_name": "Robert Wattel",
                "rank": 5,
                "last_rank": 16,
                "rank_sort": 5,
                "total": 1993,
                "entry": 2396984,
                "entry_name": "Bafunny_Bafunny"
            },
            {
                "id": 2241498,
                "event_total": 74,
                "player_name": "Brett Taylor",
                "rank": 6,
                "last_rank": 6,
                "rank_sort": 6,
                "total": 1990,
                "entry": 420377,
                "entry_name": "I Love Lamp!tey"
            },
            {
                "id": 1969140,
                "event_total": 85,
                "player_name": "Finn Sollie",
                "rank": 7,
                "last_rank": 14,
                "rank_sort": 7,
                "total": 1988,
                "entry": 27842,
                "entry_name": "Finncastle"
            },
            {
                "id": 4644815,
                "event_total": 99,
                "player_name": "Sindre Askeland",
                "rank": 8,
                "last_rank": 46,
                "rank_sort": 8,
                "total": 1983,
                "entry": 871688,
                "entry_name": "Cinico"
            },
            {
                "id": 63416168,
                "event_total": 68,
                "player_name": "Reuben Jeeva",
                "rank": 9,
                "last_rank": 4,
                "rank_sort": 9,
                "total": 1981,
                "entry": 7254,
                "entry_name": "Reuben Kazan FC"
            },
            {
                "id": 1979544,
                "event_total": 83,
                "player_name": "Ahammed Shareef",
                "rank": 10,
                "last_rank": 20,
                "rank_sort": 10,
                "total": 1981,
                "entry": 1032,
                "entry_name": "Bukayo's Dreamland"
            },
            {
                "id": 1974655,
                "event_total": 73,
                "player_name": "Kevin walshe",
                "rank": 11,
                "last_rank": 13,
                "rank_sort": 11,
                "total": 1979,
                "entry": 164129,
                "entry_name": "Dirtbirddub"
            },
            {
                "id": 1969581,
                "event_total": 99,
                "player_name": "Niall O'Connor",
                "rank": 12,
                "last_rank": 61,
                "rank_sort": 12,
                "total": 1978,
                "entry": 81877,
                "entry_name": "Leatherygents"
            },
            {
                "id": 1980487,
                "event_total": 94,
                "player_name": "Jaydin Petersen",
                "rank": 13,
                "last_rank": 47,
                "rank_sort": 13,
                "total": 1978,
                "entry": 4152,
                "entry_name": "Penandes and Co."
            },
            {
                "id": 1980595,
                "event_total": 66,
                "player_name": "Adrian Ilioski",
                "rank": 14,
                "last_rank": 7,
                "rank_sort": 14,
                "total": 1977,
                "entry": 4615,
                "entry_name": "Pukki Blinders"
            },
            {
                "id": 1971651,
                "event_total": 59,
                "player_name": "Caleb St.Ather",
                "rank": 15,
                "last_rank": 2,
                "rank_sort": 15,
                "total": 1977,
                "entry": 56849,
                "entry_name": "Credit to the boys"
            },
            {
                "id": 1972646,
                "event_total": 102,
                "player_name": "Carl Evans",
                "rank": 16,
                "last_rank": 76,
                "rank_sort": 16,
                "total": 1975,
                "entry": 15763,
                "entry_name": "For Evs Sake"
            },
            {
                "id": 61382836,
                "event_total": 78,
                "player_name": "Derek To",
                "rank": 17,
                "last_rank": 21,
                "rank_sort": 17,
                "total": 1975,
                "entry": 97985,
                "entry_name": "Soccertricks"
            },
            {
                "id": 1969854,
                "event_total": 64,
                "player_name": "Anuj Chhajer",
                "rank": 18,
                "last_rank": 8,
                "rank_sort": 18,
                "total": 1974,
                "entry": 326653,
                "entry_name": "Le Bleus"
            },
            {
                "id": 1982767,
                "event_total": 109,
                "player_name": "Tanveer Singh",
                "rank": 19,
                "last_rank": 94,
                "rank_sort": 19,
                "total": 1974,
                "entry": 1518,
                "entry_name": "Platinum Papajis"
            },
            {
                "id": 13230939,
                "event_total": 78,
                "player_name": "Darragh Gibbons",
                "rank": 20,
                "last_rank": 18,
                "rank_sort": 20,
                "total": 1973,
                "entry": 2310484,
                "entry_name": "Back Stronger"
            },
            {
                "id": 5697707,
                "event_total": 87,
                "player_name": "Dave Moore",
                "rank": 21,
                "last_rank": 42,
                "rank_sort": 21,
                "total": 1973,
                "entry": 1064603,
                "entry_name": "Hale End Boys"
            },
            {
                "id": 1985472,
                "event_total": 78,
                "player_name": "Simen Mathiassen",
                "rank": 22,
                "last_rank": 27,
                "rank_sort": 22,
                "total": 1972,
                "entry": 211654,
                "entry_name": "Tol Hansses' Sharks"
            },
            {
                "id": 47921458,
                "event_total": 70,
                "player_name": "Luke Williams",
                "rank": 23,
                "last_rank": 15,
                "rank_sort": 23,
                "total": 1971,
                "entry": 91671,
                "entry_name": "Berge King"
            },
            {
                "id": 1970271,
                "event_total": 64,
                "player_name": "James Ingram",
                "rank": 24,
                "last_rank": 10,
                "rank_sort": 24,
                "total": 1971,
                "entry": 1601,
                "entry_name": "Lola's Theme"
            },
            {
                "id": 1982575,
                "event_total": 74,
                "player_name": "Jake Logan",
                "rank": 24,
                "last_rank": 22,
                "rank_sort": 25,
                "total": 1971,
                "entry": 100243,
                "entry_name": "Jake"
            },
            {
                "id": 1974863,
                "event_total": 90,
                "player_name": "Advait Garg",
                "rank": 26,
                "last_rank": 57,
                "rank_sort": 26,
                "total": 1971,
                "entry": 7250,
                "entry_name": "Kante touch this"
            },
            {
                "id": 1985061,
                "event_total": 82,
                "player_name": "Baste Kolnes",
                "rank": 27,
                "last_rank": 35,
                "rank_sort": 27,
                "total": 1970,
                "entry": 46056,
                "entry_name": "Bissikung"
            },
            {
                "id": 21637789,
                "event_total": 89,
                "player_name": "Tien Ngo",
                "rank": 28,
                "last_rank": 36,
                "rank_sort": 28,
                "total": 1968,
                "entry": 320266,
                "entry_name": "TheCong-FPL Planner"
            },
            {
                "id": 1971344,
                "event_total": 92,
                "player_name": "Paulius Uziela",
                "rank": 29,
                "last_rank": 68,
                "rank_sort": 29,
                "total": 1967,
                "entry": 3178,
                "entry_name": "Slava Ukraini!"
            },
            {
                "id": 2615254,
                "event_total": 50,
                "player_name": "Padraigh Griffin",
                "rank": 30,
                "last_rank": 5,
                "rank_sort": 30,
                "total": 1967,
                "entry": 493034,
                "entry_name": "Sniffers"
            },
            {
                "id": 1987467,
                "event_total": 88,
                "player_name": "Mudit Malik",
                "rank": 31,
                "last_rank": 52,
                "rank_sort": 31,
                "total": 1967,
                "entry": 2930,
                "entry_name": "Entourage"
            },
            {
                "id": 1979673,
                "event_total": 83,
                "player_name": "Uro\u0161 Lorbek",
                "rank": 32,
                "last_rank": 50,
                "rank_sort": 32,
                "total": 1967,
                "entry": 983,
                "entry_name": "Chitty Chitty BamBam"
            },
            {
                "id": 13870564,
                "event_total": 92,
                "player_name": "Vishal Kumar",
                "rank": 33,
                "last_rank": 75,
                "rank_sort": 33,
                "total": 1966,
                "entry": 2408914,
                "entry_name": "Dyslexia Untied"
            },
            {
                "id": 10180521,
                "event_total": 91,
                "player_name": "jan visser",
                "rank": 34,
                "last_rank": 54,
                "rank_sort": 34,
                "total": 1965,
                "entry": 486129,
                "entry_name": "Roadto36"
            },
            {
                "id": 54337841,
                "event_total": 91,
                "player_name": "David Mc",
                "rank": 35,
                "last_rank": 41,
                "rank_sort": 35,
                "total": 1965,
                "entry": 1169767,
                "entry_name": "SAS(Slater& Shearer)"
            },
            {
                "id": 1983175,
                "event_total": 90,
                "player_name": "Fredrik Hovden",
                "rank": 36,
                "last_rank": 71,
                "rank_sort": 36,
                "total": 1964,
                "entry": 42688,
                "entry_name": "Ballgutta IF"
            },
            {
                "id": 1984872,
                "event_total": 68,
                "player_name": "Lucy Kember",
                "rank": 37,
                "last_rank": 25,
                "rank_sort": 37,
                "total": 1964,
                "entry": 8523,
                "entry_name": "Dirty Sanchez"
            },
            {
                "id": 1977869,
                "event_total": 77,
                "player_name": "Louis Karten-Ceccarelli",
                "rank": 38,
                "last_rank": 37,
                "rank_sort": 38,
                "total": 1964,
                "entry": 3226,
                "entry_name": "False Image FC"
            },
            {
                "id": 1966626,
                "event_total": 80,
                "player_name": "Andy Mason",
                "rank": 39,
                "last_rank": 51,
                "rank_sort": 39,
                "total": 1963,
                "entry": 5877,
                "entry_name": "SOUPY IS COOL"
            },
            {
                "id": 49372133,
                "event_total": 95,
                "player_name": "Andy Gazmer",
                "rank": 40,
                "last_rank": 84,
                "rank_sort": 40,
                "total": 1962,
                "entry": 2529645,
                "entry_name": "PAIN IN Dias"
            },
            {
                "id": 20185928,
                "event_total": 80,
                "player_name": "Erik Hungnes",
                "rank": 41,
                "last_rank": 55,
                "rank_sort": 41,
                "total": 1961,
                "entry": 3157973,
                "entry_name": "Arte et labore"
            },
            {
                "id": 1970164,
                "event_total": 94,
                "player_name": "Johannes Lehikoinen",
                "rank": 42,
                "last_rank": 105,
                "rank_sort": 42,
                "total": 1960,
                "entry": 2900,
                "entry_name": "JoSe's"
            },
            {
                "id": 1976680,
                "event_total": 107,
                "player_name": "Howard Waddington",
                "rank": 43,
                "last_rank": 196,
                "rank_sort": 43,
                "total": 1959,
                "entry": 42692,
                "entry_name": "Carr\u00e9 Magique"
            },
            {
                "id": 1975928,
                "event_total": 86,
                "player_name": "Melik Rasulov",
                "rank": 44,
                "last_rank": 77,
                "rank_sort": 44,
                "total": 1959,
                "entry": 74809,
                "entry_name": "Bottlejobs FC"
            },
            {
                "id": 1972922,
                "event_total": 101,
                "player_name": "Kim-Tonny Henriksen",
                "rank": 45,
                "last_rank": 151,
                "rank_sort": 45,
                "total": 1959,
                "entry": 265853,
                "entry_name": "Tonny's Toney Tunes"
            },
            {
                "id": 1978198,
                "event_total": 68,
                "player_name": "Alexander Rosen",
                "rank": 46,
                "last_rank": 32,
                "rank_sort": 46,
                "total": 1958,
                "entry": 3956,
                "entry_name": "Smack my Klich Up"
            },
            {
                "id": 1970123,
                "event_total": 63,
                "player_name": "James Twiddy",
                "rank": 47,
                "last_rank": 26,
                "rank_sort": 47,
                "total": 1957,
                "entry": 878,
                "entry_name": "The Invisible Wall"
            },
            {
                "id": 8141983,
                "event_total": 96,
                "player_name": "Jon Hodgson",
                "rank": 48,
                "last_rank": 134,
                "rank_sort": 48,
                "total": 1957,
                "entry": 1483419,
                "entry_name": "Hodgy"
            },
            {
                "id": 5510096,
                "event_total": 65,
                "player_name": "Phil Harrington",
                "rank": 49,
                "last_rank": 33,
                "rank_sort": 49,
                "total": 1955,
                "entry": 1031462,
                "entry_name": "Pazzington Bears"
            },
            {
                "id": 1966956,
                "event_total": 84,
                "player_name": "Adnan Shah",
                "rank": 50,
                "last_rank": 64,
                "rank_sort": 50,
                "total": 1955,
                "entry": 32494,
                "entry_name": "The Blue Mavericks"
            }
        ]
    }
}